(footprint "SC-82AB" (version 20221018) (generator pcbnew)
  (layer "F.Cu")
  (descr "SC-82AB")
  (tags "SC-82AB")
  (attr smd)
  (fp_text reference "REF**" (at 0 -2) (layer "F.SilkS")
      (effects (font (size 1 1) (thickness 0.15)))
    (tstamp 6635a5f0-57b1-48d1-aa7b-9cdf37ab3eb1)
  )
  (fp_text value "SC-82AB" (at 0 2 180) (layer "F.Fab")
      (effects (font (size 1 1) (thickness 0.15)))
    (tstamp 59f5647b-07b2-4954-b609-44e0e7f3e02e)
  )
  (fp_text user "${REFERENCE}" (at 0 0 90) (layer "F.Fab")
      (effects (font (size 0.5 0.5) (thickness 0.075)))
    (tstamp 30c563ce-624a-46ac-9101-42699129dd3b)
  )
  (fp_line (start -0.7 1.16) (end 0.7 1.16)
    (stroke (width 0.12) (type solid)) (layer "F.SilkS") (tstamp e830cd6c-8012-4b4a-82d0-47cd477f0fbb))
  (fp_line (start 0.7 -1.16) (end -1.2 -1.16)
    (stroke (width 0.12) (type solid)) (layer "F.SilkS") (tstamp dbadbc11-6a75-4fa1-b755-3419082be75c))
  (fp_line (start -1.5 -1.4) (end -1.5 1.4)
    (stroke (width 0.05) (type solid)) (layer "F.CrtYd") (tstamp e5b42f1a-6d42-45fa-be5f-dc0b65d2f695))
  (fp_line (start -1.5 -1.4) (end 1.5 -1.4)
    (stroke (width 0.05) (type solid)) (layer "F.CrtYd") (tstamp 0dbb2260-36d7-4e96-940a-2b3859d0043f))
  (fp_line (start -1.5 1.4) (end 1.5 1.4)
    (stroke (width 0.05) (type solid)) (layer "F.CrtYd") (tstamp 36174af2-78ec-494a-a10a-fb0ed547f9a7))
  (fp_line (start 1.5 1.4) (end 1.5 -1.4)
    (stroke (width 0.05) (type solid)) (layer "F.CrtYd") (tstamp 2e985f14-bc3c-4370-92c4-f7e5e3f94771))
  (fp_line (start -0.675 -0.6) (end -0.675 1.1)
    (stroke (width 0.1) (type solid)) (layer "F.Fab") (tstamp 94f70fcd-6a36-4935-82f9-1c3223e8936f))
  (fp_line (start -0.175 -1.1) (end -0.675 -0.6)
    (stroke (width 0.1) (type solid)) (layer "F.Fab") (tstamp f7ba25a0-cd47-4265-9d05-57c43064b589))
  (fp_line (start 0.675 -1.1) (end -0.175 -1.1)
    (stroke (width 0.1) (type solid)) (layer "F.Fab") (tstamp 39efe7e0-c6b7-4c7a-ab92-865eb0581fa2))
  (fp_line (start 0.675 -1.1) (end 0.675 1.1)
    (stroke (width 0.1) (type solid)) (layer "F.Fab") (tstamp 186af69d-5de1-4b45-94d5-0278f3be9c81))
  (fp_line (start 0.675 1.1) (end -0.675 1.1)
    (stroke (width 0.1) (type solid)) (layer "F.Fab") (tstamp 3992eb8e-1110-44a7-94bb-3d8c7bbe6ac7))
  (pad "1" smd rect (at -0.825 -0.65) (size 0.75 0.5) (layers "F.Cu" "F.Paste" "F.Mask") (tstamp 1ec4082e-73ae-4eef-9d4d-1300b02eb0f6))
  (pad "2" smd rect (at -0.825 0.65) (size 0.75 0.6) (layers "F.Cu" "F.Paste" "F.Mask") (tstamp 7a49e953-c847-4e32-b302-7be1d78b888f))
  (pad "3" smd rect (at 0.825 0.65) (size 0.75 0.5) (layers "F.Cu" "F.Paste" "F.Mask") (tstamp 41508b90-c737-4c25-b9c1-9240fef79507))
  (pad "4" smd rect (at 0.825 -0.65) (size 0.75 0.5) (layers "F.Cu" "F.Paste" "F.Mask") (tstamp d2baa259-38a6-4a1e-aab8-39eb6f1ef119))
  (model "${KICAD6_3DMODEL_DIR}/Package_TO_SOT_SMD.3dshapes/SC-82AB.wrl"
    (offset (xyz 0 0 0))
    (scale (xyz 1 1 1))
    (rotate (xyz 0 0 0))
  )
)
