(footprint "SOT-383F" (version 20221018) (generator pcbnew)
  (layer "F.Cu")
  (descr "8-pin SOT-383F, http://www.mouser.com/ds/2/80/CPDVR085V0C-HF-RevB-10783.pdf")
  (tags "SOT-383F")
  (attr smd)
  (fp_text reference "REF**" (at 0 -1.85) (layer "F.SilkS")
      (effects (font (size 1 1) (thickness 0.15)))
    (tstamp bba30160-1505-4ac6-a40e-aaac8b82a81f)
  )
  (fp_text value "SOT-383F" (at 0 1.9) (layer "F.Fab")
      (effects (font (size 1 1) (thickness 0.15)))
    (tstamp 9a30cc1e-4f5a-4f19-a2a5-0a7fcbe888b9)
  )
  (fp_text user "${REFERENCE}" (at 0 0 90) (layer "F.Fab")
      (effects (font (size 0.5 0.5) (thickness 0.075)))
    (tstamp b7cf0f93-7a1c-431a-a637-f5c47222ccfa)
  )
  (fp_line (start -0.85 1.05) (end 0.85 1.05)
    (stroke (width 0.12) (type solid)) (layer "F.SilkS") (tstamp a6b40384-e10c-4f90-9d5d-268a18cb077e))
  (fp_line (start 0.85 -1.05) (end -1.1 -1.05)
    (stroke (width 0.12) (type solid)) (layer "F.SilkS") (tstamp 865854bc-ff1b-4904-9bda-822af0c76684))
  (fp_line (start -1.32 -1.25) (end -1.32 1.25)
    (stroke (width 0.05) (type solid)) (layer "F.CrtYd") (tstamp acfb9e2c-0f55-4ba8-8d34-5b1768dccdfc))
  (fp_line (start -1.32 -1.25) (end 1.32 -1.25)
    (stroke (width 0.05) (type solid)) (layer "F.CrtYd") (tstamp 2e904e0d-29e8-4127-bde6-e3e6ac4ea322))
  (fp_line (start 1.32 1.25) (end -1.32 1.25)
    (stroke (width 0.05) (type solid)) (layer "F.CrtYd") (tstamp cce880c9-3686-4dd0-a499-71b511418602))
  (fp_line (start 1.32 1.25) (end 1.32 -1.25)
    (stroke (width 0.05) (type solid)) (layer "F.CrtYd") (tstamp 273a22fc-3b44-4b5f-b1c6-547b76c7bb5a))
  (fp_line (start -0.85 -0.75) (end -0.85 1)
    (stroke (width 0.1) (type solid)) (layer "F.Fab") (tstamp e3dfdce3-0133-46db-814b-3a8df70cc851))
  (fp_line (start -0.85 -0.75) (end -0.6 -1)
    (stroke (width 0.1) (type solid)) (layer "F.Fab") (tstamp 39d44288-03b3-4ed9-b56e-864fa088e4bc))
  (fp_line (start -0.85 1) (end 0.85 1)
    (stroke (width 0.1) (type solid)) (layer "F.Fab") (tstamp ed39a109-d4a6-4af9-a007-43e589dde7ed))
  (fp_line (start -0.6 -1) (end 0.85 -1)
    (stroke (width 0.1) (type solid)) (layer "F.Fab") (tstamp 2ac66204-de86-446a-8b2f-560c7f2385b7))
  (fp_line (start 0.85 1) (end 0.85 -1)
    (stroke (width 0.1) (type solid)) (layer "F.Fab") (tstamp 5c76f4a7-a583-49d5-b581-d8cbfab538ab))
  (pad "1" smd rect (at -0.76 -0.75) (size 0.63 0.3) (layers "F.Cu" "F.Paste" "F.Mask") (tstamp 1b4519eb-1ded-496f-b24d-c4095922fb1b))
  (pad "2" smd rect (at -0.76 -0.25) (size 0.63 0.3) (layers "F.Cu" "F.Paste" "F.Mask") (tstamp c7a472a4-23a0-490e-8e3b-5c34eafe5272))
  (pad "3" smd rect (at -0.76 0.25) (size 0.63 0.3) (layers "F.Cu" "F.Paste" "F.Mask") (tstamp 50441c92-e5cd-47f6-8856-ac62b5a926de))
  (pad "4" smd rect (at -0.76 0.75) (size 0.63 0.3) (layers "F.Cu" "F.Paste" "F.Mask") (tstamp 7ee5cdef-74f4-4007-8c9b-46faa533a9b4))
  (pad "5" smd rect (at 0.76 0.75) (size 0.63 0.3) (layers "F.Cu" "F.Paste" "F.Mask") (tstamp 6f8bb881-9ce9-4f37-b95a-c17702471119))
  (pad "6" smd rect (at 0.76 0.25) (size 0.63 0.3) (layers "F.Cu" "F.Paste" "F.Mask") (tstamp 4a5105e5-6dbe-4900-bdeb-411dc2b4b68e))
  (pad "7" smd rect (at 0.76 -0.25) (size 0.63 0.3) (layers "F.Cu" "F.Paste" "F.Mask") (tstamp 2a28fbb8-bf78-4f44-be7d-4a0f5474417c))
  (pad "8" smd rect (at 0.76 -0.75) (size 0.63 0.3) (layers "F.Cu" "F.Paste" "F.Mask") (tstamp 44c6ebbe-080c-444d-9a1b-a902e46a106c))
  (pad "9" smd rect (at 0 0) (size 0.45 1.5) (layers "F.Cu" "F.Paste" "F.Mask") (tstamp 2d562afe-33d0-4b6a-ba56-35809c2660cc))
  (model "${KICAD6_3DMODEL_DIR}/Package_TO_SOT_SMD.3dshapes/SOT-383F.wrl"
    (offset (xyz 0 0 0))
    (scale (xyz 1 1 1))
    (rotate (xyz 0 0 0))
  )
)
