(footprint "Texas_R-PDSO-G5_DCK-5" (version 20221018) (generator pcbnew)
  (layer "F.Cu")
  (descr "DCK R-PDSO-G5, JEDEC MO-203C Var AA, https://www.ti.com/lit/ds/symlink/tmp20.pdf#page=23")
  (tags "DCK R-PDSO-G5 MO-203C")
  (solder_mask_margin 0.05)
  (solder_paste_margin -0.025)
  (attr smd)
  (fp_text reference "REF**" (at 0 -2) (layer "F.SilkS")
      (effects (font (size 1 1) (thickness 0.15)))
    (tstamp 79b7b447-0e28-4c98-b659-0ec7d5f058b5)
  )
  (fp_text value "Texas_R-PDSO-G5_DCK-5" (at 0 2.1) (layer "F.Fab")
      (effects (font (size 1 1) (thickness 0.15)))
    (tstamp 91d30185-1675-4630-8019-ab2236d913f0)
  )
  (fp_text user "${REFERENCE}" (at 0 0 90) (layer "F.Fab")
      (effects (font (size 0.5 0.5) (thickness 0.075)))
    (tstamp 459efc8a-4979-4ed0-b81e-8bcac61baf59)
  )
  (fp_line (start -0.7 1.06) (end 0.7 1.06)
    (stroke (width 0.12) (type solid)) (layer "F.SilkS") (tstamp da07a1df-eec1-4bd4-882c-8f6bf4dc7307))
  (fp_line (start 0.7 -1.06) (end -1.2 -1.06)
    (stroke (width 0.12) (type solid)) (layer "F.SilkS") (tstamp bec72a84-08c6-4a89-9a8e-8db4c61759b1))
  (fp_line (start -1.8 -1.25) (end -1.8 1.25)
    (stroke (width 0.05) (type solid)) (layer "F.CrtYd") (tstamp c855a061-bdd4-410f-962a-544484e7f744))
  (fp_line (start -1.8 -1.25) (end 1.8 -1.25)
    (stroke (width 0.05) (type solid)) (layer "F.CrtYd") (tstamp d997bd87-ddbd-4e19-9291-5055aa27b925))
  (fp_line (start -1.8 1.25) (end 1.8 1.25)
    (stroke (width 0.05) (type solid)) (layer "F.CrtYd") (tstamp 2fc5d5cc-b2b1-4943-a329-0f29055964f5))
  (fp_line (start 1.8 1.25) (end 1.8 -1.25)
    (stroke (width 0.05) (type solid)) (layer "F.CrtYd") (tstamp c447b3a4-4809-46fb-8275-3e5dbdd3cd18))
  (fp_line (start -0.675 -0.5) (end -0.675 1)
    (stroke (width 0.1) (type solid)) (layer "F.Fab") (tstamp 38bab9c6-4bb3-4b88-b1c0-3b584e592f2a))
  (fp_line (start -0.175 -1) (end -0.675 -0.5)
    (stroke (width 0.1) (type solid)) (layer "F.Fab") (tstamp 46411f41-378f-4f2d-8bad-3ddc7dfd7cd9))
  (fp_line (start 0.675 -1) (end -0.175 -1)
    (stroke (width 0.1) (type solid)) (layer "F.Fab") (tstamp 14926c8b-f24b-4ec7-bd99-7adbf6003954))
  (fp_line (start 0.675 -1) (end 0.675 1)
    (stroke (width 0.1) (type solid)) (layer "F.Fab") (tstamp ac15706c-1ba1-4f66-ad6c-cfffefb1bba5))
  (fp_line (start 0.675 1) (end -0.675 1)
    (stroke (width 0.1) (type solid)) (layer "F.Fab") (tstamp f1ed821d-a09a-41ff-81a7-adda5470ceb8))
  (pad "1" smd roundrect (at -1.1 -0.65) (size 0.9 0.4) (layers "F.Cu" "F.Paste" "F.Mask") (roundrect_rratio 0.25) (tstamp 7bc14a15-fda1-4a03-9127-8391e18d79b7))
  (pad "2" smd roundrect (at -1.1 0) (size 0.9 0.4) (layers "F.Cu" "F.Paste" "F.Mask") (roundrect_rratio 0.25) (tstamp b1350a96-a376-4a05-b2b5-c83640dc5423))
  (pad "3" smd roundrect (at -1.1 0.65) (size 0.9 0.4) (layers "F.Cu" "F.Paste" "F.Mask") (roundrect_rratio 0.25) (tstamp c1c2f86c-e555-4fda-8a47-872fabb757e6))
  (pad "4" smd roundrect (at 1.1 0.65) (size 0.9 0.4) (layers "F.Cu" "F.Paste" "F.Mask") (roundrect_rratio 0.25) (tstamp 39a7ffc5-c274-4ea9-a21d-78f5ddbc5dd4))
  (pad "5" smd roundrect (at 1.1 -0.65) (size 0.9 0.4) (layers "F.Cu" "F.Paste" "F.Mask") (roundrect_rratio 0.25) (tstamp 222967f9-2584-408d-8411-9d0a3bcd6b5a))
  (model "${KICAD6_3DMODEL_DIR}/Package_TO_SOT_SMD.3dshapes/Texas_R-PDSO-G5_DCK-5.wrl"
    (offset (xyz 0 0 0))
    (scale (xyz 1 1 1))
    (rotate (xyz 0 0 0))
  )
)
