(footprint "TO-50-4_ShortPad-WithHole_Housing" (version 20221018) (generator pcbnew)
  (layer "F.Cu")
  (descr "TO-50-4 Macro X Package Style M238")
  (tags "TO-50-4 Macro X Package Style M238")
  (attr smd)
  (fp_text reference "REF**" (at 4.35 -2.925) (layer "F.SilkS")
      (effects (font (size 1 1) (thickness 0.15)))
    (tstamp 2c24950d-13b7-4714-98b3-6fabbe4b20ac)
  )
  (fp_text value "TO-50-4_ShortPad-WithHole_Housing" (at 16.675 2.975) (layer "F.Fab")
      (effects (font (size 1 1) (thickness 0.15)))
    (tstamp bde1e23e-15f3-4e7a-b1c4-503692570da5)
  )
  (fp_text user "${REFERENCE}" (at 0.375 0) (layer "F.Fab")
      (effects (font (size 1 1) (thickness 0.15)))
    (tstamp 06e8f6b8-b5d3-4312-bb6a-a4318347ef78)
  )
  (fp_line (start -8 -1.2) (end -3.6 -1.2)
    (stroke (width 0.05) (type solid)) (layer "F.CrtYd") (tstamp 49e6d9c9-fa0a-4d85-b010-b3b92953712e))
  (fp_line (start -8 1.2) (end -8 -1.2)
    (stroke (width 0.05) (type solid)) (layer "F.CrtYd") (tstamp a7b74259-edff-4ded-a312-2ad27c29c3e9))
  (fp_line (start -3.6 -1.2) (end -1.6 -3.2)
    (stroke (width 0.05) (type solid)) (layer "F.CrtYd") (tstamp 5fc6e7fa-3800-4f78-a659-37f63cc54b0e))
  (fp_line (start -3.6 1.2) (end -8 1.2)
    (stroke (width 0.05) (type solid)) (layer "F.CrtYd") (tstamp 902622bd-58af-456f-9b3f-ed28a76a9a00))
  (fp_line (start -1.6 -7.6) (end 0.8 -7.6)
    (stroke (width 0.05) (type solid)) (layer "F.CrtYd") (tstamp 49fe97db-6793-44b9-91c2-babca4f798fe))
  (fp_line (start -1.6 -3.2) (end -1.6 -7.6)
    (stroke (width 0.05) (type solid)) (layer "F.CrtYd") (tstamp 2391ca0e-a248-4237-8ddd-f6a5b1adde3c))
  (fp_line (start -1.6 3.2) (end -3.6 1.2)
    (stroke (width 0.05) (type solid)) (layer "F.CrtYd") (tstamp 65a3629c-e294-4268-8870-18f5d6c6aadd))
  (fp_line (start -1.6 7.8) (end -1.6 3.2)
    (stroke (width 0.05) (type solid)) (layer "F.CrtYd") (tstamp 0eaf209c-fc8a-4fc2-8131-9000059d09fb))
  (fp_line (start 0.8 -7.6) (end 0.8 -3.2)
    (stroke (width 0.05) (type solid)) (layer "F.CrtYd") (tstamp 1045caa8-1931-4303-9d6c-bb23ef6a6f52))
  (fp_line (start 0.8 -3.2) (end 2.8 -1.2)
    (stroke (width 0.05) (type solid)) (layer "F.CrtYd") (tstamp e3aa4d13-7d3c-4bcc-b4e2-85dd5f9c8319))
  (fp_line (start 0.8 3.2) (end 0.8 7.8)
    (stroke (width 0.05) (type solid)) (layer "F.CrtYd") (tstamp 0ef6ccc6-568c-40fc-a905-562922eb9e7a))
  (fp_line (start 0.8 7.8) (end -1.6 7.8)
    (stroke (width 0.05) (type solid)) (layer "F.CrtYd") (tstamp b53a8a84-7cd1-4e0b-b158-eaac97034915))
  (fp_line (start 2.8 -1.2) (end 8.8 -1.2)
    (stroke (width 0.05) (type solid)) (layer "F.CrtYd") (tstamp ce502065-871f-45da-b267-6cbd6bc33e09))
  (fp_line (start 2.8 1.2) (end 0.8 3.2)
    (stroke (width 0.05) (type solid)) (layer "F.CrtYd") (tstamp 7d5e7cd7-d595-4647-add3-2ea9b673b034))
  (fp_line (start 8.8 -1.2) (end 8.8 1.2)
    (stroke (width 0.05) (type solid)) (layer "F.CrtYd") (tstamp e8df76cb-55b7-461f-8e1b-f0af5c08576b))
  (fp_line (start 8.8 1.2) (end 2.8 1.2)
    (stroke (width 0.05) (type solid)) (layer "F.CrtYd") (tstamp 8e9d5e0e-c9b3-4aae-a763-b4d28410cfac))
  (fp_circle (center -0.4 0) (end -0.35 -2.55)
    (stroke (width 0.1) (type solid)) (fill none) (layer "F.Fab") (tstamp 80f31eb0-ec64-44f4-acd3-414f16efdca1))
  (pad "" np_thru_hole circle (at -0.4 0 270) (size 5.5 5.5) (drill 5.5) (layers "*.Cu" "*.Mask") (tstamp 6f26d60c-3bac-48e7-879f-dfba39d3da6d))
  (pad "1" smd rect (at -5.6 0 270) (size 1.5 4) (layers "F.Cu" "F.Paste" "F.Mask") (tstamp 2442329a-d9f7-4ba5-b853-701c6d562c66))
  (pad "2" smd rect (at -0.4 5.2 270) (size 4 1.5) (layers "F.Cu" "F.Paste" "F.Mask") (tstamp 899b48c2-6cde-474f-9cef-faefc5542be8))
  (pad "3" smd rect (at 5.6 0 270) (size 1.5 5.5) (layers "F.Cu" "F.Paste" "F.Mask") (tstamp 3681d21d-617b-4345-b4e0-9f16bd17a5ff))
  (pad "4" smd rect (at -0.4 -5.2 270) (size 4 1.5) (layers "F.Cu" "F.Paste" "F.Mask") (tstamp 8a7845c5-f045-430d-b1d6-ff349d892c85))
  (model "${KICAD6_3DMODEL_DIR}/Package_TO_SOT_SMD.3dshapes/TO-50-4_ShortPad-WithHole_Housing.wrl"
    (offset (xyz 0 0 0))
    (scale (xyz 1 1 1))
    (rotate (xyz 0 0 0))
  )
)
