(footprint "TSOT-23-5_HandSoldering" (version 20221018) (generator pcbnew)
  (layer "F.Cu")
  (descr "5-pin TSOT23 package, http://cds.linear.com/docs/en/packaging/SOT_5_05-08-1635.pdf")
  (tags "TSOT-23-5 Hand-soldering")
  (attr smd)
  (fp_text reference "REF**" (at 0 -2.45) (layer "F.SilkS")
      (effects (font (size 1 1) (thickness 0.15)))
    (tstamp 3464c019-2f37-4ac8-8dec-94dafb3632d3)
  )
  (fp_text value "TSOT-23-5_HandSoldering" (at 0 2.5) (layer "F.Fab")
      (effects (font (size 1 1) (thickness 0.15)))
    (tstamp ed8b55c1-4276-4340-9f03-3c89a3c564eb)
  )
  (fp_text user "${REFERENCE}" (at 0 0 90) (layer "F.Fab")
      (effects (font (size 0.5 0.5) (thickness 0.075)))
    (tstamp a190d903-de0c-4750-a64d-9dc46badbaf9)
  )
  (fp_line (start -0.88 1.56) (end 0.88 1.56)
    (stroke (width 0.12) (type solid)) (layer "F.SilkS") (tstamp 1a0c0b07-1703-4d7a-9b7a-deed4874febf))
  (fp_line (start 0.88 -1.51) (end -1.55 -1.51)
    (stroke (width 0.12) (type solid)) (layer "F.SilkS") (tstamp 7a3f7b60-0ace-472f-bb15-31dc05f5e6ed))
  (fp_line (start -2.96 -1.7) (end -2.96 1.7)
    (stroke (width 0.05) (type solid)) (layer "F.CrtYd") (tstamp 75ea798d-0dd5-4dba-ab5b-c6d33a01839e))
  (fp_line (start -2.96 -1.7) (end 2.96 -1.7)
    (stroke (width 0.05) (type solid)) (layer "F.CrtYd") (tstamp 006fe0b6-3196-48d3-adb9-65b62559ad88))
  (fp_line (start 2.96 1.7) (end -2.96 1.7)
    (stroke (width 0.05) (type solid)) (layer "F.CrtYd") (tstamp 0427f042-850d-485c-9d4a-41669abbf5c5))
  (fp_line (start 2.96 1.7) (end 2.96 -1.7)
    (stroke (width 0.05) (type solid)) (layer "F.CrtYd") (tstamp fc8e1f38-56ac-4e94-a5cb-5f3f18b9b381))
  (fp_line (start -0.88 -1) (end -0.88 1.45)
    (stroke (width 0.1) (type solid)) (layer "F.Fab") (tstamp 0297c32c-ed7c-485b-a9a4-022ca81534a4))
  (fp_line (start -0.88 -1) (end -0.43 -1.45)
    (stroke (width 0.1) (type solid)) (layer "F.Fab") (tstamp 591c59ce-c073-4803-862e-9f675783009c))
  (fp_line (start 0.88 -1.45) (end -0.43 -1.45)
    (stroke (width 0.1) (type solid)) (layer "F.Fab") (tstamp 422455cc-d24a-47f8-9616-6a7a2ed0b7dd))
  (fp_line (start 0.88 -1.45) (end 0.88 1.45)
    (stroke (width 0.1) (type solid)) (layer "F.Fab") (tstamp a61b984e-e0c0-4842-b47d-b3c272ccc81f))
  (fp_line (start 0.88 1.45) (end -0.88 1.45)
    (stroke (width 0.1) (type solid)) (layer "F.Fab") (tstamp a901fcc4-4e7a-4a9d-961e-b923d04dc3d5))
  (pad "1" smd rect (at -1.71 -0.95) (size 2 0.65) (layers "F.Cu" "F.Paste" "F.Mask") (tstamp 7e594301-7454-4eda-b4ed-78382ffe053c))
  (pad "2" smd rect (at -1.71 0) (size 2 0.65) (layers "F.Cu" "F.Paste" "F.Mask") (tstamp afa1869b-f907-4ff3-92c7-e0f86ec52ad2))
  (pad "3" smd rect (at -1.71 0.95) (size 2 0.65) (layers "F.Cu" "F.Paste" "F.Mask") (tstamp 9362bba9-dc69-4614-b00b-6b5ba64e2d6d))
  (pad "4" smd rect (at 1.71 0.95) (size 2 0.65) (layers "F.Cu" "F.Paste" "F.Mask") (tstamp 910d5880-ec3c-4ed0-965e-da8e500b0819))
  (pad "5" smd rect (at 1.71 -0.95) (size 2 0.65) (layers "F.Cu" "F.Paste" "F.Mask") (tstamp 57414309-ec63-4f57-aaac-a5eb7d6b9772))
  (model "${KICAD6_3DMODEL_DIR}/Package_TO_SOT_SMD.3dshapes/TSOT-23-5.wrl"
    (offset (xyz 0 0 0))
    (scale (xyz 1 1 1))
    (rotate (xyz 0 0 0))
  )
)
