(footprint "Vishay_PowerPAK_SC70-6L_Dual" (version 20221018) (generator pcbnew)
  (layer "F.Cu")
  (descr "Vishay PowerPAK SC70 dual transistor package http://www.vishay.com/docs/70487/70487.pdf")
  (tags "powerpak sc70 sc-70 dual")
  (attr smd)
  (fp_text reference "REF**" (at 0 -1.75) (layer "F.SilkS")
      (effects (font (size 1 1) (thickness 0.15)))
    (tstamp 603f61c5-afe6-4c17-9fb2-ebd2e3b95e82)
  )
  (fp_text value "Vishay_PowerPAK_SC70-6L_Dual" (at 0 2) (layer "F.Fab")
      (effects (font (size 1 1) (thickness 0.15)))
    (tstamp 1012dc6b-24a5-4028-9714-eabde6b13e71)
  )
  (fp_text user "${REFERENCE}" (at 0 0) (layer "F.Fab")
      (effects (font (size 0.4 0.4) (thickness 0.1)))
    (tstamp 8f4b91b9-5a3b-4e60-966c-35af0b269fa1)
  )
  (fp_line (start -1.2 -1.15) (end -1.2 -1.05)
    (stroke (width 0.12) (type solid)) (layer "F.SilkS") (tstamp 99cc902b-9f08-48fb-92d0-50b13cda78fe))
  (fp_line (start -1.2 -1.15) (end 0.75 -1.15)
    (stroke (width 0.12) (type solid)) (layer "F.SilkS") (tstamp 76916779-9727-4519-a9f0-2a35066ec2d7))
  (fp_line (start 0.75 1.15) (end -0.75 1.15)
    (stroke (width 0.12) (type solid)) (layer "F.SilkS") (tstamp 36eeab09-c48b-4afc-8bc4-0205438547c5))
  (fp_line (start -1.33 -1.28) (end 1.33 -1.28)
    (stroke (width 0.05) (type solid)) (layer "F.CrtYd") (tstamp de20f082-7c97-4caf-ac42-a318fabed97c))
  (fp_line (start -1.33 1.28) (end -1.33 -1.28)
    (stroke (width 0.05) (type solid)) (layer "F.CrtYd") (tstamp 25f8000a-fd1a-4a0d-a9ec-8b81b231af69))
  (fp_line (start 1.33 -1.28) (end 1.33 1.28)
    (stroke (width 0.05) (type solid)) (layer "F.CrtYd") (tstamp a7c7fe80-23d4-4ad5-acd2-1ac80cb16f2b))
  (fp_line (start 1.33 1.28) (end -1.33 1.28)
    (stroke (width 0.05) (type solid)) (layer "F.CrtYd") (tstamp 29f26802-b7f0-4f95-87ac-4cec785bf017))
  (fp_line (start -1.025 -0.5) (end -0.5 -1.025)
    (stroke (width 0.1) (type solid)) (layer "F.Fab") (tstamp a41c7f4f-8352-4aa6-a308-ca2b3963b8d1))
  (fp_line (start -1.025 1.025) (end -1.025 -0.5)
    (stroke (width 0.1) (type solid)) (layer "F.Fab") (tstamp d7ee811b-1a11-4455-a917-5a6eed69236b))
  (fp_line (start -0.5 -1.025) (end 1.025 -1.025)
    (stroke (width 0.1) (type solid)) (layer "F.Fab") (tstamp f3435afe-dcf0-408f-aa25-566ffedfa9a5))
  (fp_line (start 1.025 -1.025) (end 1.025 1.025)
    (stroke (width 0.1) (type solid)) (layer "F.Fab") (tstamp 99b4ad3f-1416-419c-9ca4-f01161351d4f))
  (fp_line (start 1.025 1.025) (end -1.025 1.025)
    (stroke (width 0.1) (type solid)) (layer "F.Fab") (tstamp 528511dc-11f9-4e14-a3b3-e0eb3d1fd8c5))
  (pad "1" smd rect (at -0.925 -0.65) (size 0.325 0.3) (layers "F.Cu" "F.Paste" "F.Mask") (tstamp 01a62a31-649c-4c4c-aaa7-c4f04fd45abf))
  (pad "2" smd rect (at -0.925 0) (size 0.325 0.3) (layers "F.Cu" "F.Paste" "F.Mask") (tstamp 01e50698-766e-4de1-8199-eabb2e19d05c))
  (pad "3" smd rect (at -0.925 0.65) (size 0.325 0.3) (layers "F.Cu" "F.Paste" "F.Mask") (tstamp 4400af58-15df-4ecb-bc66-c196c26018db))
  (pad "3" smd rect (at 0 0.4665) (size 0.95 0.613) (layers "F.Cu" "F.Paste" "F.Mask") (tstamp 414de2aa-ed61-4755-be02-f3a3b246edfa))
  (pad "4" smd rect (at 0.925 0.65) (size 0.325 0.3) (layers "F.Cu" "F.Paste" "F.Mask") (tstamp 5116e7f2-5eae-4086-b7dc-4dda684b1ec3))
  (pad "5" smd rect (at 0.925 0) (size 0.325 0.3) (layers "F.Cu" "F.Paste" "F.Mask") (tstamp e30b0691-150d-4c25-b3d6-55fb26a901e0))
  (pad "6" smd rect (at 0 -0.4665) (size 0.95 0.613) (layers "F.Cu" "F.Paste" "F.Mask") (tstamp 0411df3c-937a-4863-a1bc-b0b6673878f1))
  (pad "6" smd rect (at 0.925 -0.65) (size 0.325 0.3) (layers "F.Cu" "F.Paste" "F.Mask") (tstamp e71dcf98-b85b-4cf9-b58c-01f689060536))
  (model "${KICAD6_3DMODEL_DIR}/Package_TO_SOT_SMD.3dshapes/Vishay_PowerPAK_SC70-6L_Dual.wrl"
    (offset (xyz 0 0 0))
    (scale (xyz 1 1 1))
    (rotate (xyz 0 0 0))
  )
)
