(footprint "ROHM_SOT-457_ClockwisePinNumbering" (version 20221018) (generator pcbnew)
  (layer "F.Cu")
  (descr "ROHM SOT-457 SC-74, 6 Pin (https://fscdn.rohm.com/en/products/databook/datasheet/discrete/transistor/digital/imh3at110-e.pdf), generated with kicad-footprint-generator ipc_gullwing_generator.py")
  (tags "ROHM SC-74 SO")
  (attr smd)
  (fp_text reference "REF**" (at 0 -2.8) (layer "F.SilkS")
      (effects (font (size 1 1) (thickness 0.15)))
    (tstamp dbe06907-4898-4eb4-a05a-351e79a4f64d)
  )
  (fp_text value "ROHM_SOT-457_ClockwisePinNumbering" (at 0 2.8) (layer "F.Fab")
      (effects (font (size 1 1) (thickness 0.15)))
    (tstamp 700498dc-19d2-4cdf-a11e-940a0786f2cf)
  )
  (fp_text user "${REFERENCE}" (at 0 0) (layer "F.Fab")
      (effects (font (size 0.72 0.72) (thickness 0.11)))
    (tstamp 16e34e98-a0bc-4cb5-a764-f3e0ce6fdb74)
  )
  (fp_line (start -1.56 -0.825) (end -1.56 0)
    (stroke (width 0.12) (type solid)) (layer "F.SilkS") (tstamp a2e4e9e8-9f09-4892-80ab-86898aad530c))
  (fp_line (start -1.56 0.825) (end -1.56 0)
    (stroke (width 0.12) (type solid)) (layer "F.SilkS") (tstamp 604a6810-a8b4-4ee7-96a0-7e5da3503361))
  (fp_line (start 1.56 -0.825) (end 1.56 0)
    (stroke (width 0.12) (type solid)) (layer "F.SilkS") (tstamp afae0953-1f20-4da9-b0ba-e6f366b293ca))
  (fp_line (start 1.56 0.825) (end 1.56 0)
    (stroke (width 0.12) (type solid)) (layer "F.SilkS") (tstamp 76a8a82d-90b3-472f-9c77-894e3c5ba306))
  (fp_poly
    (pts
      (xy -1.46 -1.3375)
      (xy -1.79 -1.5775)
      (xy -1.79 -1.0975)
      (xy -1.46 -1.3375)
    )

    (stroke (width 0.12) (type solid)) (fill solid) (layer "F.SilkS") (tstamp 68435435-9828-4e47-a44a-ae88de6aa274))
  (fp_line (start -1.7 -2.1) (end -1.7 2.1)
    (stroke (width 0.05) (type solid)) (layer "F.CrtYd") (tstamp ede03095-504d-4ff6-829d-dccbad77621b))
  (fp_line (start -1.7 2.1) (end 1.7 2.1)
    (stroke (width 0.05) (type solid)) (layer "F.CrtYd") (tstamp 8a3230d7-e0f3-44f4-b2a0-4f5a920517c8))
  (fp_line (start 1.7 -2.1) (end -1.7 -2.1)
    (stroke (width 0.05) (type solid)) (layer "F.CrtYd") (tstamp 650216e3-e64d-4bc2-b7ee-a3cf2b807bbd))
  (fp_line (start 1.7 2.1) (end 1.7 -2.1)
    (stroke (width 0.05) (type solid)) (layer "F.CrtYd") (tstamp 8d590e4b-2c0a-48b3-bcdd-55bee7522f69))
  (fp_line (start -1.45 -0.4125) (end -1.0375 -0.825)
    (stroke (width 0.1) (type solid)) (layer "F.Fab") (tstamp 0a866de0-b7bd-40fc-8425-bfb446418497))
  (fp_line (start -1.45 0.825) (end -1.45 -0.4125)
    (stroke (width 0.1) (type solid)) (layer "F.Fab") (tstamp f166a2c6-c828-4166-bd61-242d93322950))
  (fp_line (start -1.0375 -0.825) (end 1.45 -0.825)
    (stroke (width 0.1) (type solid)) (layer "F.Fab") (tstamp 234a2cb3-b661-401b-a716-28264639d9cb))
  (fp_line (start 1.45 -0.825) (end 1.45 0.825)
    (stroke (width 0.1) (type solid)) (layer "F.Fab") (tstamp bfbc22ca-550e-4fdc-b2a0-1fe061592e8b))
  (fp_line (start 1.45 0.825) (end -1.45 0.825)
    (stroke (width 0.1) (type solid)) (layer "F.Fab") (tstamp eb002897-a522-4acc-acfa-afe02e568da6))
  (pad "1" smd roundrect (at -0.95 -1.1) (size 0.5 1.5) (layers "F.Cu" "F.Paste" "F.Mask") (roundrect_rratio 0.25) (tstamp d41cbc8f-3a70-4270-8f1c-29b344925bd7))
  (pad "2" smd roundrect (at 0 -1.1) (size 0.5 1.5) (layers "F.Cu" "F.Paste" "F.Mask") (roundrect_rratio 0.25) (tstamp ebbe681f-147a-489f-bd36-e85ddcab3bc7))
  (pad "3" smd roundrect (at 0.95 -1.1) (size 0.5 1.5) (layers "F.Cu" "F.Paste" "F.Mask") (roundrect_rratio 0.25) (tstamp 11ea7537-850d-4228-835f-d56374b8685c))
  (pad "4" smd roundrect (at 0.95 1.1) (size 0.5 1.5) (layers "F.Cu" "F.Paste" "F.Mask") (roundrect_rratio 0.25) (tstamp 5751e86d-0759-41a1-8796-c1526692faa5))
  (pad "5" smd roundrect (at 0 1.1) (size 0.5 1.5) (layers "F.Cu" "F.Paste" "F.Mask") (roundrect_rratio 0.25) (tstamp 23bdb1ac-2fdb-458d-8821-3b8ef0cbd056))
  (pad "6" smd roundrect (at -0.95 1.1) (size 0.5 1.5) (layers "F.Cu" "F.Paste" "F.Mask") (roundrect_rratio 0.25) (tstamp bc8c6a30-a164-4816-937b-0d49ab4ff9c7))
  (model "${KICAD7_3DMODEL_DIR}/Package_SO.3dshapes/ROHM_SOT-457_ClockwisePinNumbering.wrl"
    (offset (xyz 0 0 0))
    (scale (xyz 1 1 1))
    (rotate (xyz 0 0 0))
  )
)
