(footprint "ESP32-S3-WROOM-2" (version 20221018) (generator pcbnew)
  (layer "F.Cu")
  (descr "2.4 GHz Wi­-Fi and Bluetooth 5 (LE) module: https://www.espressif.com/sites/default/files/documentation/esp32-s3-wroom-2_datasheet_en.pdf")
  (tags "Bluetooth WiFi Wi-Fi ESP WROOM")
  (attr smd)
  (fp_text reference "REF**" (at -10.5 13.5 90) (layer "F.SilkS")
      (effects (font (size 1 1) (thickness 0.15)) (justify left))
    (tstamp 6061ecd3-0cf8-4046-9ce3-82ecb6993515)
  )
  (fp_text value "ESP32-S3-WROOM-2" (at 0 14.5) (layer "F.Fab")
      (effects (font (size 0.9 0.9) (thickness 0.15)))
    (tstamp baab5e21-f062-46e2-be45-b446bf5b894c)
  )
  (fp_text user "${REFERENCE}" (at 0 3) (layer "F.Fab")
      (effects (font (size 1 1) (thickness 0.15)))
    (tstamp 263ff581-2132-48f1-8b01-0ccace8bfbba)
  )
  (fp_line (start -9.8 -6) (end -9.2 -6)
    (stroke (width 0.12) (type solid)) (layer "F.SilkS") (tstamp bd1d4358-3b56-4d42-a98f-b07aade7d264))
  (fp_line (start -9.8 -5.4) (end -9.8 -6)
    (stroke (width 0.12) (type solid)) (layer "F.SilkS") (tstamp c8e7b08d-90d4-44a7-adf4-5bc52a09cf40))
  (fp_line (start -9.2 12.95) (end -9.2 12)
    (stroke (width 0.12) (type solid)) (layer "F.SilkS") (tstamp a4b669ee-9518-4f2f-bfdc-03148cc2b4fd))
  (fp_line (start -7.8 12.95) (end -9.2 12.95)
    (stroke (width 0.12) (type solid)) (layer "F.SilkS") (tstamp 096aeaa0-c10f-4f21-828c-e4348cf8a588))
  (fp_line (start 7.8 12.95) (end 9.2 12.95)
    (stroke (width 0.12) (type solid)) (layer "F.SilkS") (tstamp eecac9da-c07f-413d-aed4-9abe8346f038))
  (fp_line (start 9.2 12.95) (end 9.2 12)
    (stroke (width 0.12) (type solid)) (layer "F.SilkS") (tstamp 4707d851-649e-4387-919b-53dc34fe39f0))
  (fp_poly
    (pts
      (xy -24.25 -28)
      (xy 24.25 -28)
      (xy 24.25 -6.5)
      (xy 9.75 -6.5)
      (xy 9.75 13.5)
      (xy -9.75 13.5)
      (xy -9.75 -6.5)
      (xy -24.25 -6.5)
    )

    (stroke (width 0.05) (type solid)) (fill none) (layer "F.CrtYd") (tstamp 17b93007-6bed-466a-8d74-c491ab2aff54))
  (fp_line (start -9 -12.75) (end 9 -12.75)
    (stroke (width 0.1) (type solid)) (layer "F.Fab") (tstamp 3a9f88c5-c3ce-4470-a940-4ca3add49d80))
  (fp_line (start -9 -6.75) (end -9 -12.75)
    (stroke (width 0.1) (type solid)) (layer "F.Fab") (tstamp a54b9094-38e0-4d2c-a567-4d0bdb61e2db))
  (fp_line (start 9 -12.75) (end 9 -6.75)
    (stroke (width 0.1) (type solid)) (layer "F.Fab") (tstamp 8b370f59-36f6-438e-83c5-3bed3ef74482))
  (fp_rect (start -9 -6.75) (end 9 12.75)
    (stroke (width 0.1) (type solid)) (fill none) (layer "F.Fab") (tstamp 6d2613c8-2be8-4d41-809d-52158ba110a1))
  (fp_poly
    (pts
      (xy -5 -9.75)
      (xy -3 -9.75)
      (xy -3 -12.25)
      (xy 0 -12.25)
      (xy 0 -9.75)
      (xy 2 -9.75)
      (xy 2 -12.25)
      (xy 7.5 -12.25)
      (xy 7.5 -6.75)
      (xy 7 -6.75)
      (xy 7 -11.75)
      (xy 5 -11.75)
      (xy 5 -6.75)
      (xy 4.5 -6.75)
      (xy 4.5 -11.75)
      (xy 2.5 -11.75)
      (xy 2.5 -9.25)
      (xy -0.5 -9.25)
      (xy -0.5 -11.75)
      (xy -2.5 -11.75)
      (xy -2.5 -9.25)
      (xy -5.5 -9.25)
      (xy -5.5 -11.75)
      (xy -7.5 -11.75)
      (xy -7.5 -8.25)
      (xy -8 -8.25)
      (xy -8 -12.25)
      (xy -5 -12.25)
    )

    (stroke (width 0.1) (type solid)) (fill solid) (layer "F.Fab") (tstamp 2321df2f-9a58-433d-a5e7-84e7c5c56a3a))
  (pad "1" smd rect (at -8.75 -5.26) (size 1.5 0.9) (layers "F.Cu" "F.Paste" "F.Mask") (tstamp 1bd7944f-be9d-451a-aa42-3967010b7c19))
  (pad "2" smd rect (at -8.75 -3.99) (size 1.5 0.9) (layers "F.Cu" "F.Paste" "F.Mask") (tstamp 00117d8e-0e8d-444b-a1f3-f4978d47d9b3))
  (pad "3" smd rect (at -8.75 -2.72) (size 1.5 0.9) (layers "F.Cu" "F.Paste" "F.Mask") (tstamp 91ca2eda-da62-4e31-b5ef-380eeadd5000))
  (pad "4" smd rect (at -8.75 -1.45) (size 1.5 0.9) (layers "F.Cu" "F.Paste" "F.Mask") (tstamp 2686b64b-b117-4477-93b4-ce60fdcd9cc5))
  (pad "5" smd rect (at -8.75 -0.18) (size 1.5 0.9) (layers "F.Cu" "F.Paste" "F.Mask") (tstamp 794e3ab7-bd2d-44e8-86f4-4cb341674aa9))
  (pad "6" smd rect (at -8.75 1.09) (size 1.5 0.9) (layers "F.Cu" "F.Paste" "F.Mask") (tstamp c9cd98db-7e4d-40a5-8665-084a8c17d2ba))
  (pad "7" smd rect (at -8.75 2.36) (size 1.5 0.9) (layers "F.Cu" "F.Paste" "F.Mask") (tstamp 0ae96d54-8e1d-4b64-a8af-e9c017ed7421))
  (pad "8" smd rect (at -8.75 3.63) (size 1.5 0.9) (layers "F.Cu" "F.Paste" "F.Mask") (tstamp 1ca0da5b-186e-4c73-9e08-80816cd57c3e))
  (pad "9" smd rect (at -8.75 4.9) (size 1.5 0.9) (layers "F.Cu" "F.Paste" "F.Mask") (tstamp 9cafe792-c1f7-4977-b804-edb98a3a182b))
  (pad "10" smd rect (at -8.75 6.17) (size 1.5 0.9) (layers "F.Cu" "F.Paste" "F.Mask") (tstamp e61148d5-71cf-4624-90e2-ff3dbad1b9e1))
  (pad "11" smd rect (at -8.75 7.44) (size 1.5 0.9) (layers "F.Cu" "F.Paste" "F.Mask") (tstamp 04db5ea8-45c7-4ac8-980e-cfac02b827e8))
  (pad "12" smd rect (at -8.75 8.71) (size 1.5 0.9) (layers "F.Cu" "F.Paste" "F.Mask") (tstamp 58a3c98d-76e8-4c99-a8ce-0d6d75cc8c7c))
  (pad "13" smd rect (at -8.75 9.98) (size 1.5 0.9) (layers "F.Cu" "F.Paste" "F.Mask") (tstamp 7e5ce69e-18e7-4931-bb46-7c9dc6e0e941))
  (pad "14" smd rect (at -8.75 11.25) (size 1.5 0.9) (layers "F.Cu" "F.Paste" "F.Mask") (tstamp 3cd7ed2b-c450-450e-936e-7c0f0e734b4d))
  (pad "15" smd rect (at -6.985 12.5 90) (size 1.5 0.9) (layers "F.Cu" "F.Paste" "F.Mask") (tstamp 09ac19f1-8843-473a-8db7-f17f798d1427))
  (pad "16" smd rect (at -5.715 12.5 90) (size 1.5 0.9) (layers "F.Cu" "F.Paste" "F.Mask") (tstamp c3a85e10-30b8-4774-b039-1ce64878785f))
  (pad "17" smd rect (at -4.445 12.5 90) (size 1.5 0.9) (layers "F.Cu" "F.Paste" "F.Mask") (tstamp 7f185524-599a-42ad-bc27-e369217d213b))
  (pad "18" smd rect (at -3.175 12.5 90) (size 1.5 0.9) (layers "F.Cu" "F.Paste" "F.Mask") (tstamp 214e7d56-0045-4455-9f46-6b2f57a41cd3))
  (pad "19" smd rect (at -1.905 12.5 90) (size 1.5 0.9) (layers "F.Cu" "F.Paste" "F.Mask") (tstamp 12741a6e-4604-43e7-ab0a-6421b6ae053f))
  (pad "20" smd rect (at -0.635 12.5 90) (size 1.5 0.9) (layers "F.Cu" "F.Paste" "F.Mask") (tstamp 84adfd0c-f05c-4154-b92b-0680dc137f7d))
  (pad "21" smd rect (at 0.635 12.5 90) (size 1.5 0.9) (layers "F.Cu" "F.Paste" "F.Mask") (tstamp ffda12c1-9487-4b14-8d72-661b48c27e1b))
  (pad "22" smd rect (at 1.905 12.5 90) (size 1.5 0.9) (layers "F.Cu" "F.Paste" "F.Mask") (tstamp 1966bc1d-685b-4227-b62d-6466fa415482))
  (pad "23" smd rect (at 3.175 12.5 90) (size 1.5 0.9) (layers "F.Cu" "F.Paste" "F.Mask") (tstamp f211a9cb-7289-4d78-b282-cf7821210735))
  (pad "24" smd rect (at 4.445 12.5 90) (size 1.5 0.9) (layers "F.Cu" "F.Paste" "F.Mask") (tstamp ad9e9b5c-a1a3-45f4-a01f-5e77c3f309a3))
  (pad "25" smd rect (at 5.715 12.5 90) (size 1.5 0.9) (layers "F.Cu" "F.Paste" "F.Mask") (tstamp 3471b15a-4567-4db8-82c2-35cbffee0200))
  (pad "26" smd rect (at 6.985 12.5 90) (size 1.5 0.9) (layers "F.Cu" "F.Paste" "F.Mask") (tstamp 7aa3683d-e296-4ba1-a78c-0550dac98d41))
  (pad "27" smd rect (at 8.75 11.25) (size 1.5 0.9) (layers "F.Cu" "F.Paste" "F.Mask") (tstamp c92753be-49ac-455f-aa5d-13fd26901862))
  (pad "28" smd rect (at 8.75 9.98) (size 1.5 0.9) (layers "F.Cu" "F.Paste" "F.Mask") (tstamp ccc41bc7-3d13-4b70-b3b4-c7cec91e3b45))
  (pad "29" smd rect (at 8.75 8.71) (size 1.5 0.9) (layers "F.Cu" "F.Paste" "F.Mask") (tstamp e4d0f92e-c25a-4ff4-b1fb-7251025c4967))
  (pad "30" smd rect (at 8.75 7.44) (size 1.5 0.9) (layers "F.Cu" "F.Paste" "F.Mask") (tstamp 895699e9-3c04-445a-b169-a7e578af16e2))
  (pad "31" smd rect (at 8.75 6.17) (size 1.5 0.9) (layers "F.Cu" "F.Paste" "F.Mask") (tstamp 208f540b-63e2-4482-b989-1c21ef6541ed))
  (pad "32" smd rect (at 8.75 4.9) (size 1.5 0.9) (layers "F.Cu" "F.Paste" "F.Mask") (tstamp 4cb5aeb8-5597-433f-b523-e9eb0ce4b74f))
  (pad "33" smd rect (at 8.75 3.63) (size 1.5 0.9) (layers "F.Cu" "F.Paste" "F.Mask") (tstamp 4030bb27-6bab-4b3b-9dc4-8147cff47580))
  (pad "34" smd rect (at 8.75 2.36) (size 1.5 0.9) (layers "F.Cu" "F.Paste" "F.Mask") (tstamp 3c2dfa5b-bca7-485d-8ac2-0490caf8f423))
  (pad "35" smd rect (at 8.75 1.09) (size 1.5 0.9) (layers "F.Cu" "F.Paste" "F.Mask") (tstamp 944e43b2-2724-43b5-a4e9-cb4bfabcca01))
  (pad "36" smd rect (at 8.75 -0.18) (size 1.5 0.9) (layers "F.Cu" "F.Paste" "F.Mask") (tstamp aea91c2b-5619-4c2d-95e1-00ab2c53b95e))
  (pad "37" smd rect (at 8.75 -1.45) (size 1.5 0.9) (layers "F.Cu" "F.Paste" "F.Mask") (tstamp a1c7862f-f61f-429f-8bfb-54e911fcb4c5))
  (pad "38" smd rect (at 8.75 -2.72) (size 1.5 0.9) (layers "F.Cu" "F.Paste" "F.Mask") (tstamp 70aebf0b-4ef0-48ad-b944-2a511ec10266))
  (pad "39" smd rect (at 8.75 -3.99) (size 1.5 0.9) (layers "F.Cu" "F.Paste" "F.Mask") (tstamp 0143bf94-0e36-4801-89ec-b192f18abeda))
  (pad "40" smd rect (at 8.75 -5.26) (size 1.5 0.9) (layers "F.Cu" "F.Paste" "F.Mask") (tstamp 818f2da3-bbef-47d4-ae7f-3f38d4b219a8))
  (pad "41" smd rect (at -2.86 -1.41) (size 1 1) (layers "F.Cu" "F.Paste" "F.Mask")
    (thermal_bridge_angle 45) (tstamp 442a8049-ed11-41fa-ab6f-47532f18cbad))
  (pad "41" thru_hole circle (at -2.86 -0.66) (size 0.6 0.6) (drill 0.2) (layers "*.Cu" "*.Mask") (tstamp f7cd81f7-fed8-4272-bf4c-db9e5aee9acb))
  (pad "41" smd rect (at -2.86 0.09) (size 1 1) (layers "F.Cu" "F.Paste" "F.Mask")
    (thermal_bridge_angle 45) (tstamp 1ee07b86-a927-4a1d-852d-94eebf8b21cc))
  (pad "41" thru_hole circle (at -2.86 0.84) (size 0.6 0.6) (drill 0.2) (layers "*.Cu" "*.Mask") (tstamp 166d37aa-e811-430e-a6bf-9c41d721fb90))
  (pad "41" smd rect (at -2.86 1.59) (size 1 1) (layers "F.Cu" "F.Paste" "F.Mask")
    (thermal_bridge_angle 45) (tstamp b901060c-a154-454a-8a04-67565f13703d))
  (pad "41" thru_hole circle (at -2.11 -1.41) (size 0.6 0.6) (drill 0.2) (layers "*.Cu" "*.Mask") (tstamp 75953a5e-44b4-4c7a-866b-44812cd49439))
  (pad "41" thru_hole circle (at -2.11 0.09) (size 0.6 0.6) (drill 0.2) (layers "*.Cu" "*.Mask") (tstamp 8703f9f6-17ba-447e-a403-1484295dd349))
  (pad "41" thru_hole circle (at -2.11 1.59) (size 0.6 0.6) (drill 0.2) (layers "*.Cu" "*.Mask") (tstamp abcc7b92-6f05-4f9c-b792-60bd3e86fd47))
  (pad "41" smd rect (at -1.36 -1.41) (size 1 1) (layers "F.Cu" "F.Paste" "F.Mask")
    (thermal_bridge_angle 45) (tstamp 44af6526-465c-40ff-a822-1ee02b51108e))
  (pad "41" thru_hole circle (at -1.36 -0.66) (size 0.6 0.6) (drill 0.2) (layers "*.Cu" "*.Mask") (tstamp 03412441-b1e1-4418-b9cf-28344a9af4fa))
  (pad "41" smd rect (at -1.36 0.09) (size 1 1) (layers "F.Cu" "F.Paste" "F.Mask")
    (thermal_bridge_angle 45) (tstamp 3993eada-4908-4383-b7b1-1d93a6539a55))
  (pad "41" thru_hole circle (at -1.36 0.84) (size 0.6 0.6) (drill 0.2) (layers "*.Cu" "*.Mask") (tstamp f909cd27-24b0-418a-bd33-2c7bc8dbabdb))
  (pad "41" smd rect (at -1.36 1.59) (size 1 1) (layers "F.Cu" "F.Paste" "F.Mask")
    (thermal_bridge_angle 45) (tstamp 28dd1400-acf7-42e9-ac50-4a833c480a46))
  (pad "41" thru_hole circle (at -0.61 -1.41) (size 0.6 0.6) (drill 0.2) (layers "*.Cu" "*.Mask") (tstamp 5f1e085e-36f8-49ce-b34d-357a6453a4bf))
  (pad "41" thru_hole circle (at -0.61 0.09) (size 0.6 0.6) (drill 0.2) (layers "*.Cu" "*.Mask") (tstamp b4a34563-f9b1-40c8-be4b-b38d1d68af4e))
  (pad "41" thru_hole circle (at -0.61 1.59) (size 0.6 0.6) (drill 0.2) (layers "*.Cu" "*.Mask") (tstamp 0606ce0c-f48b-4ea7-b6e8-76d156eaf155))
  (pad "41" smd rect (at 0.14 -1.41) (size 1 1) (layers "F.Cu" "F.Paste" "F.Mask")
    (thermal_bridge_angle 45) (tstamp 608c7a84-eaa4-4904-a6b9-d4fd905062ac))
  (pad "41" thru_hole circle (at 0.14 -0.66) (size 0.6 0.6) (drill 0.2) (layers "*.Cu" "*.Mask") (tstamp bbd93535-3ed6-4c83-bdf6-518e1b18482c))
  (pad "41" smd rect (at 0.14 0.09) (size 1 1) (layers "F.Cu" "F.Paste" "F.Mask")
    (thermal_bridge_angle 45) (tstamp c33c8c71-0ec0-4b6b-a90a-5729470ad315))
  (pad "41" thru_hole circle (at 0.14 0.84) (size 0.6 0.6) (drill 0.2) (layers "*.Cu" "*.Mask") (tstamp 0d2081ed-cec3-4557-8684-d995989dd9a9))
  (pad "41" smd rect (at 0.14 1.59) (size 1 1) (layers "F.Cu" "F.Paste" "F.Mask")
    (thermal_bridge_angle 45) (tstamp 2c7e62b8-09c8-4774-a8dd-73c5c05878b9))
  (zone (net 0) (net_name "") (layer "F.Cu") (tstamp b55b5a90-55cc-4e9d-8d73-c20b89782392) (hatch full 0.5)
    (connect_pads (clearance 0))
    (min_thickness 0.25) (filled_areas_thickness no)
    (keepout (tracks not_allowed) (vias not_allowed) (pads not_allowed) (copperpour not_allowed) (footprints not_allowed))
    (fill (thermal_gap 0.5) (thermal_bridge_width 0.5))
    (polygon
      (pts
        (xy -24 -27.75)
        (xy 24 -27.75)
        (xy 24 -6.75)
        (xy -24 -6.75)
      )
    )
  )
  (model "${KICAD7_3DMODEL_DIR}/RF_Module.3dshapes/ESP32-S3-WROOM-2.wrl"
    (offset (xyz 0 0 0))
    (scale (xyz 1 1 1))
    (rotate (xyz 0 0 0))
  )
)
