(footprint "Fairchild_MicroPak2-6_1.0x1.0mm_P0.35mm" (version 20221018) (generator pcbnew)
  (layer "F.Cu")
  (descr "Fairchild-specific MicroPak2-6 1.0x1.0mm Pitch 0.35mm https://www.nxp.com/docs/en/application-note/AN10343.pdff")
  (tags "Fairchild-specific MicroPak2-6 1.0x1.0mm Pitch 0.35mm")
  (attr smd)
  (fp_text reference "REF**" (at 0.0125 -1.4) (layer "F.SilkS")
      (effects (font (size 1 1) (thickness 0.15)))
    (tstamp 2aa6fa90-76bf-46ea-9f9c-52a15cfdc6f9)
  )
  (fp_text value "Fairchild_MicroPak2-6_1.0x1.0mm_P0.35mm" (at 0.0375 1.5) (layer "F.Fab")
      (effects (font (size 1 1) (thickness 0.15)))
    (tstamp ffb9ce92-cd84-4579-9709-25244a774a22)
  )
  (fp_text user "${REFERENCE}" (at 0.0125 0) (layer "F.Fab")
      (effects (font (size 0.5 0.5) (thickness 0.075)))
    (tstamp 55cc36c2-3c22-44dd-906d-4295ae071109)
  )
  (fp_line (start -0.3375 0.65) (end 0.3625 0.65)
    (stroke (width 0.12) (type solid)) (layer "F.SilkS") (tstamp 690dd07c-17e0-4cf3-970a-d5b174a84901))
  (fp_line (start 0.3625 -0.65) (end -0.6375 -0.65)
    (stroke (width 0.12) (type solid)) (layer "F.SilkS") (tstamp 779681f7-2d8f-4802-8d7b-99d88fc7360c))
  (fp_line (start -0.79 -0.65) (end -0.79 0.65)
    (stroke (width 0.05) (type solid)) (layer "F.CrtYd") (tstamp 00f13e50-7d61-44fb-99b6-a515a29aaef1))
  (fp_line (start -0.79 -0.65) (end 0.79 -0.65)
    (stroke (width 0.05) (type solid)) (layer "F.CrtYd") (tstamp 1a88eb31-c8d8-41b3-af53-29c53dfaab71))
  (fp_line (start 0.79 0.65) (end -0.79 0.65)
    (stroke (width 0.05) (type solid)) (layer "F.CrtYd") (tstamp 76373d2c-88c1-4d5c-aa55-dee19465a466))
  (fp_line (start 0.79 0.65) (end 0.79 -0.65)
    (stroke (width 0.05) (type solid)) (layer "F.CrtYd") (tstamp bedc9e87-61b3-47a8-a788-9222cfa08dc2))
  (fp_line (start -0.4875 -0.15) (end -0.1375 -0.5)
    (stroke (width 0.12) (type solid)) (layer "F.Fab") (tstamp 7a174839-108c-43a3-bdc3-fc4f757436a2))
  (fp_line (start -0.4875 0.5) (end -0.4875 -0.15)
    (stroke (width 0.12) (type solid)) (layer "F.Fab") (tstamp 566f9c35-9bab-43a9-88d1-5b561f580a8c))
  (fp_line (start -0.1375 -0.5) (end 0.5125 -0.5)
    (stroke (width 0.12) (type solid)) (layer "F.Fab") (tstamp 299e2188-4b85-4aee-9a3e-51b7ae1e0746))
  (fp_line (start 0.5125 -0.5) (end 0.5125 0.5)
    (stroke (width 0.12) (type solid)) (layer "F.Fab") (tstamp d4ea7412-155d-4335-af42-42784f30a2b0))
  (fp_line (start 0.5125 0.5) (end -0.4875 0.5)
    (stroke (width 0.12) (type solid)) (layer "F.Fab") (tstamp e7a14858-37c6-44cb-a2ef-8106e23e5f7d))
  (pad "1" smd rect (at -0.3525 -0.35) (size 0.57 0.2) (layers "F.Cu" "F.Paste" "F.Mask") (tstamp ab0b7776-c08a-434b-873b-382ab70e9921))
  (pad "2" smd rect (at -0.3525 0) (size 0.57 0.2) (layers "F.Cu" "F.Paste" "F.Mask") (tstamp 73179942-1f06-46c0-a211-a353f3b990e1))
  (pad "3" smd rect (at -0.3525 0.35) (size 0.57 0.2) (layers "F.Cu" "F.Paste" "F.Mask") (tstamp ee11c14b-45ac-4cae-83dd-b04dfe04a738))
  (pad "4" smd rect (at 0.3775 0.35) (size 0.52 0.2) (layers "F.Cu" "F.Paste" "F.Mask") (tstamp 4791e1ac-d6b0-420d-a3b9-d58d59067d9e))
  (pad "5" smd rect (at 0.3775 0) (size 0.52 0.2) (layers "F.Cu" "F.Paste" "F.Mask") (tstamp 82f19edc-8662-41e6-a6ae-2f8478d884b9))
  (pad "6" smd rect (at 0.3775 -0.35) (size 0.52 0.2) (layers "F.Cu" "F.Paste" "F.Mask") (tstamp b18ca717-55b9-4582-947d-fe7e79549ab7))
  (model "${KICAD6_3DMODEL_DIR}/Package_SON.3dshapes/Fairchild_MicroPak2-6_1.0x1.0mm_P0.35mm.wrl"
    (offset (xyz 0 0 0))
    (scale (xyz 1 1 1))
    (rotate (xyz 0 0 0))
  )
)
