(footprint "Infineon_PG-TISON-8-3" (version 20221018) (generator pcbnew)
  (layer "F.Cu")
  (descr "Infineon, PG-TISON-8-2, 5x6x1.15mm, 1.27mm Pitch, Exposed Paddle, https://www.infineon.com/cms/en/product/packages/PG-TISON/PG-TISON-8-2/")
  (tags "tison")
  (solder_paste_margin -0.05)
  (attr smd)
  (fp_text reference "REF**" (at 0 -3.5) (layer "F.SilkS")
      (effects (font (size 1 1) (thickness 0.15)))
    (tstamp e58823b8-18c2-4ec3-bb95-26879166877f)
  )
  (fp_text value "Infineon_PG-TISON-8-3" (at 0 3.5) (layer "F.Fab")
      (effects (font (size 1 1) (thickness 0.15)))
    (tstamp a56388a7-9952-48c4-9a33-4178d586c79c)
  )
  (fp_text user "${REFERENCE}" (at 0 0) (layer "F.Fab")
      (effects (font (size 1 1) (thickness 0.15)))
    (tstamp d04d2b56-e1bf-4d9d-91ed-1a7d0f544a23)
  )
  (fp_line (start 3 -2.61) (end 0 -2.61)
    (stroke (width 0.12) (type solid)) (layer "F.SilkS") (tstamp 92b74b96-72b8-4b2f-9042-9082de009cbf))
  (fp_line (start 3 2.61) (end -3 2.61)
    (stroke (width 0.12) (type solid)) (layer "F.SilkS") (tstamp ac465ca3-f8a0-43c9-9dfa-74ed29846a60))
  (fp_line (start -3.5 -2.75) (end 3.5 -2.75)
    (stroke (width 0.05) (type solid)) (layer "F.CrtYd") (tstamp 0f6d68f4-6a97-4d5f-ab8a-3af0a2f521d6))
  (fp_line (start -3.5 2.75) (end -3.5 -2.75)
    (stroke (width 0.05) (type solid)) (layer "F.CrtYd") (tstamp 802b737a-2aeb-42d8-82f1-077f9b8726a9))
  (fp_line (start 3.5 -2.75) (end 3.5 2.75)
    (stroke (width 0.05) (type solid)) (layer "F.CrtYd") (tstamp 3395d26f-0fa3-4116-b169-bdf7ecd1e0e7))
  (fp_line (start 3.5 2.75) (end -3.5 2.75)
    (stroke (width 0.05) (type solid)) (layer "F.CrtYd") (tstamp 20ef52c8-cdf3-429a-802b-69b8fe2ecb3b))
  (fp_line (start -3 -1.5) (end -3 2.5)
    (stroke (width 0.1) (type solid)) (layer "F.Fab") (tstamp c0f66d7c-7a82-44a7-a992-91a95c2502bb))
  (fp_line (start -2 -2.5) (end -3 -1.5)
    (stroke (width 0.1) (type solid)) (layer "F.Fab") (tstamp f314ab3a-71cb-414f-8580-e87453e3c8b1))
  (fp_line (start -2 -2.5) (end 3 -2.5)
    (stroke (width 0.1) (type solid)) (layer "F.Fab") (tstamp 38d449e9-6877-40ba-be8e-0eea9ee7bf01))
  (fp_line (start 3 -2.5) (end 3 2.5)
    (stroke (width 0.1) (type solid)) (layer "F.Fab") (tstamp 8f4feaf7-06af-4c55-95f3-fbe98f508ac5))
  (fp_line (start 3 2.5) (end -3 2.5)
    (stroke (width 0.1) (type solid)) (layer "F.Fab") (tstamp 7eb4c171-2422-4cdc-b92d-c1c480d00abd))
  (pad "" smd rect (at -2.84 -0.635) (size 0.73 0.51) (layers "F.Paste") (tstamp afaad509-c3ee-4c3b-babd-675198098ff5))
  (pad "" smd rect (at -2.84 0.635) (size 0.73 0.51) (layers "F.Paste") (tstamp be47a682-a0f8-470f-9b73-d0cf4e98497a))
  (pad "" smd rect (at -2.84 1.905) (size 0.73 0.51) (layers "F.Paste") (tstamp 7aa85fac-6da3-4bf0-bb15-e6fee09b2e5b))
  (pad "" smd rect (at -1.82 -0.64) (size 0.9 0.5) (layers "F.Paste") (tstamp 333c1228-b8d4-4a38-ba5d-e73ff043c5bb))
  (pad "" smd rect (at -1.82 0.06) (size 0.9 0.5) (layers "F.Paste") (tstamp f04355b5-a727-40db-9262-e05c1b7572e3))
  (pad "" smd rect (at -1.82 0.76) (size 0.9 0.5) (layers "F.Paste") (tstamp 4d9e43ea-cd35-47f5-8122-d28b79c2ad2b))
  (pad "" smd rect (at -1.82 1.46) (size 0.9 0.5) (layers "F.Paste") (tstamp 3921b1b7-9f3b-4c51-a004-1c708611aa36))
  (pad "" smd rect (at -1.545 -1.6) (size 0.35 0.6) (layers "F.Paste") (tstamp 92a9e694-6e0b-4e6a-a82b-34642bbe895c))
  (pad "" smd rect (at 0 -1.425) (size 0.75 0.75) (layers "F.Paste") (tstamp a1cfa2b6-b4b8-4d5f-b804-975b46b31469))
  (pad "" smd rect (at 0 -0.475) (size 0.75 0.75) (layers "F.Paste") (tstamp b8319b54-afaf-4ad1-87bc-954700d97047))
  (pad "" smd rect (at 0 0.475) (size 0.75 0.75) (layers "F.Paste") (tstamp d56e0ae7-0865-41b7-ad3e-35c9bd165c91))
  (pad "" smd rect (at 0 1.425) (size 0.75 0.75) (layers "F.Paste") (tstamp 2f4bf752-51bd-45ca-862c-2c8105329473))
  (pad "" smd rect (at 1.025 -1.425) (size 0.75 0.75) (layers "F.Paste") (tstamp 802a0143-3105-4d1a-b38f-82ee8b290ebe))
  (pad "" smd rect (at 1.025 -0.475) (size 0.75 0.75) (layers "F.Paste") (tstamp 8dd26fd4-5d33-42dd-8d77-522cc974e44d))
  (pad "" smd rect (at 1.025 0.475) (size 0.75 0.75) (layers "F.Paste") (tstamp b708fe6c-0949-466e-b69a-8c13cd1b7572))
  (pad "" smd rect (at 1.025 1.425) (size 0.75 0.75) (layers "F.Paste") (tstamp 498de95b-1a23-421e-bf89-df7062f5caa3))
  (pad "1" smd rect (at -2.84 -1.905) (size 0.83 0.61) (layers "F.Cu" "F.Paste" "F.Mask") (tstamp 3f36d86e-9694-4f5d-8d70-05df2aa55b59))
  (pad "2" smd custom (at -1.555 0) (size 0.6 4) (layers "F.Cu" "F.Mask")
    (zone_connect 2) (thermal_bridge_angle 45)
    (options (clearance outline) (anchor rect))
    (primitives
      (gr_poly
        (pts
          (xy -0.3 2)
          (xy -0.87 2)
          (xy -0.87 2.21)
          (xy -1.7 2.21)
          (xy -1.7 1.6)
          (xy -1.02 1.6)
          (xy -1.02 0.94)
          (xy -1.7 0.94)
          (xy -1.7 0.33)
          (xy -1.02 0.33)
          (xy -1.02 -0.33)
          (xy -1.7 -0.33)
          (xy -1.7 -0.94)
          (xy -1.02 -0.94)
          (xy -1.02 -1.14)
          (xy -0.3 -1.14)
        )
        (width 0) (fill yes))
    ) (tstamp 45e039b9-252b-4ea4-9623-b473be63ffa1))
  (pad "3" smd rect (at 2.84 1.905) (size 0.83 0.61) (layers "F.Cu" "F.Paste" "F.Mask") (tstamp 01e8cde1-280d-4f88-9dfc-8821d45f480c))
  (pad "4" smd rect (at 2.84 0.635) (size 0.83 0.61) (layers "F.Cu" "F.Paste" "F.Mask") (tstamp 4ed75d50-529d-48bb-951c-634e388a9ad1))
  (pad "5" smd rect (at 2.84 -0.635) (size 0.83 0.61) (layers "F.Cu" "F.Paste" "F.Mask") (tstamp 248b570d-1456-4749-aa98-f0a1ef4136dc))
  (pad "6" smd rect (at 2.84 -1.905) (size 0.83 0.61) (layers "F.Cu" "F.Paste" "F.Mask") (tstamp e44932e4-98ac-4929-8ca6-2830568110c4))
  (pad "7" smd rect (at 0.53 0) (size 2.15 4) (layers "F.Cu" "F.Mask") (tstamp e9826e3f-9606-49e7-856d-796458ea4105))
  (model "${KICAD6_3DMODEL_DIR}/Package_SON.3dshapes/Infineon_PG-TISON-8-3.wrl"
    (offset (xyz 0 0 0))
    (scale (xyz 1 1 1))
    (rotate (xyz 0 0 0))
  )
)
