(footprint "Texas_R-PWSON-N12_EP0.4x2mm" (version 20221018) (generator pcbnew)
  (layer "F.Cu")
  (descr "http://www.ti.com/lit/ds/symlink/tpd6f003.pdf")
  (tags "WSON SMD")
  (attr smd)
  (fp_text reference "REF**" (at 0 -2.3) (layer "F.SilkS")
      (effects (font (size 1 1) (thickness 0.15)))
    (tstamp 6d06e1e7-dd5b-452b-87f2-9f71eea9f997)
  )
  (fp_text value "Texas_R-PWSON-N12_EP0.4x2mm" (at 0 2.35) (layer "F.Fab")
      (effects (font (size 1 1) (thickness 0.15)))
    (tstamp 40791baa-a0fa-4825-9b80-291b458252b8)
  )
  (fp_text user "${REFERENCE}" (at 0.025 -0.025 90) (layer "F.Fab")
      (effects (font (size 0.5 0.5) (thickness 0.1)))
    (tstamp ef6bd582-ee7c-422c-a352-862ed1b91248)
  )
  (fp_line (start -0.775 1.35) (end -0.775 1.175)
    (stroke (width 0.12) (type solid)) (layer "F.SilkS") (tstamp d0da320a-1414-4f35-93f1-792668b927d4))
  (fp_line (start 0.775 -1.35) (end -0.9 -1.35)
    (stroke (width 0.12) (type solid)) (layer "F.SilkS") (tstamp c4984c3d-7a81-4dbc-a4c1-e7bb1718a9c4))
  (fp_line (start 0.775 -1.35) (end 0.775 -1.175)
    (stroke (width 0.12) (type solid)) (layer "F.SilkS") (tstamp e52a870f-a71a-4e9d-842a-822b1c97abef))
  (fp_line (start 0.775 1.35) (end -0.775 1.35)
    (stroke (width 0.12) (type solid)) (layer "F.SilkS") (tstamp f8610872-0320-49b9-834e-be32587386de))
  (fp_line (start 0.775 1.35) (end 0.775 1.175)
    (stroke (width 0.12) (type solid)) (layer "F.SilkS") (tstamp e9f764a4-57ec-4280-a5b9-5df93f8fd5e5))
  (fp_line (start -1.13 -1.5) (end -1.13 1.5)
    (stroke (width 0.05) (type solid)) (layer "F.CrtYd") (tstamp 56316a4d-ab07-4fd1-be18-b1995ab8c62e))
  (fp_line (start -1.13 -1.5) (end 1.13 -1.5)
    (stroke (width 0.05) (type solid)) (layer "F.CrtYd") (tstamp ac8b7d4d-2938-4eb0-9c6b-dfbe3b1cd221))
  (fp_line (start -1.13 1.5) (end 1.13 1.5)
    (stroke (width 0.05) (type solid)) (layer "F.CrtYd") (tstamp c3a98f88-9616-458d-be8d-ed466714ad4a))
  (fp_line (start 1.13 -1.5) (end 1.13 1.5)
    (stroke (width 0.05) (type solid)) (layer "F.CrtYd") (tstamp 9c0c7a59-eec1-4fd9-8e9c-900a7c9a9ce6))
  (fp_line (start -0.675 -0.75) (end -0.675 1.25)
    (stroke (width 0.1) (type solid)) (layer "F.Fab") (tstamp 093c6e85-dd30-4a1f-94e4-75e8754b82d7))
  (fp_line (start -0.675 1.25) (end 0.675 1.25)
    (stroke (width 0.1) (type solid)) (layer "F.Fab") (tstamp 62691543-25ed-4198-a654-7e9dcd1bc633))
  (fp_line (start -0.175 -1.25) (end -0.675 -0.75)
    (stroke (width 0.1) (type solid)) (layer "F.Fab") (tstamp 2f6aec2a-4b76-4710-9a72-6315a254fb2c))
  (fp_line (start -0.175 -1.25) (end 0.675 -1.25)
    (stroke (width 0.1) (type solid)) (layer "F.Fab") (tstamp 7b9f2727-9ad7-4f2f-b86a-650f1f5ef456))
  (fp_line (start 0.675 -1.25) (end 0.675 1.25)
    (stroke (width 0.1) (type solid)) (layer "F.Fab") (tstamp f6fa3278-39bc-4900-998d-5d8ca3814e3f))
  (pad "" smd roundrect (at 0 -0.68) (size 0.3 0.55) (layers "F.Paste") (roundrect_rratio 0.25) (tstamp 74815629-7886-4420-99c3-3b42ded82955))
  (pad "" smd roundrect (at 0 0) (size 0.3 0.55) (layers "F.Paste") (roundrect_rratio 0.25) (tstamp 24634a12-70d7-4539-b017-1dd966d163f8))
  (pad "" smd roundrect (at 0 0.68) (size 0.3 0.55) (layers "F.Paste") (roundrect_rratio 0.25) (tstamp 7dcec404-6258-4b34-995a-d0763e8e1c0b))
  (pad "1" smd roundrect (at -0.625 -1 90) (size 0.2 0.5) (layers "F.Cu" "F.Paste" "F.Mask") (roundrect_rratio 0.25) (tstamp b144ef12-c5a0-4440-9fdb-4ec4353a4030))
  (pad "2" smd roundrect (at -0.625 -0.6 90) (size 0.2 0.5) (layers "F.Cu" "F.Paste" "F.Mask") (roundrect_rratio 0.25) (tstamp 55e318eb-5fe3-4cf8-8727-9d525a48e85b))
  (pad "3" smd roundrect (at -0.625 -0.2 90) (size 0.2 0.5) (layers "F.Cu" "F.Paste" "F.Mask") (roundrect_rratio 0.25) (tstamp d6fcac33-3c32-42f3-aea1-237f76540191))
  (pad "4" smd roundrect (at -0.625 0.2 90) (size 0.2 0.5) (layers "F.Cu" "F.Paste" "F.Mask") (roundrect_rratio 0.25) (tstamp 5de75721-5abf-4471-a892-b0b26e27ab1b))
  (pad "5" smd roundrect (at -0.625 0.6 90) (size 0.2 0.5) (layers "F.Cu" "F.Paste" "F.Mask") (roundrect_rratio 0.25) (tstamp ba301b24-e3a9-43e2-954b-5c2d28bff3c0))
  (pad "6" smd roundrect (at -0.625 1 90) (size 0.2 0.5) (layers "F.Cu" "F.Paste" "F.Mask") (roundrect_rratio 0.25) (tstamp 8de46c5b-458c-4b1f-ba44-bf2bac090c35))
  (pad "7" smd roundrect (at 0.625 1 90) (size 0.2 0.5) (layers "F.Cu" "F.Paste" "F.Mask") (roundrect_rratio 0.25) (tstamp 625d6ff4-16ef-4057-b891-ea0a33e9a321))
  (pad "8" smd roundrect (at 0.625 0.6 90) (size 0.2 0.5) (layers "F.Cu" "F.Paste" "F.Mask") (roundrect_rratio 0.25) (tstamp 58c6aaf4-24fb-4e50-ab7e-cc38f70323d5))
  (pad "9" smd roundrect (at 0.625 0.2 90) (size 0.2 0.5) (layers "F.Cu" "F.Paste" "F.Mask") (roundrect_rratio 0.25) (tstamp 9597ae21-b35b-4da2-bd06-259bc3978ecd))
  (pad "10" smd roundrect (at 0.625 -0.2 90) (size 0.2 0.5) (layers "F.Cu" "F.Paste" "F.Mask") (roundrect_rratio 0.25) (tstamp bf733327-4da8-4e1f-b2a9-457d9cc84309))
  (pad "11" smd roundrect (at 0.625 -0.6 90) (size 0.2 0.5) (layers "F.Cu" "F.Paste" "F.Mask") (roundrect_rratio 0.25) (tstamp 89894cd2-e96e-4b62-985f-6a3021781c52))
  (pad "12" smd roundrect (at 0.625 -1 90) (size 0.2 0.5) (layers "F.Cu" "F.Paste" "F.Mask") (roundrect_rratio 0.25) (tstamp 5d076f6f-3a6c-42f5-a394-337ef8031e2c))
  (pad "13" smd roundrect (at 0 0) (size 0.4 2) (layers "F.Cu" "F.Mask") (roundrect_rratio 0.25) (tstamp a44b7ff4-2e16-4c6f-9180-3e68642799a1))
  (model "${KICAD6_3DMODEL_DIR}/Package_SON.3dshapes/Texas_R-PWSON-N12_EP0.4x2mm.wrl"
    (offset (xyz 0 0 0))
    (scale (xyz 1 1 1))
    (rotate (xyz 0 0 0))
  )
)
