(footprint "USON-20_2x4mm_P0.4mm" (version 20221018) (generator pcbnew)
  (layer "F.Cu")
  (descr "USON-20 2x4mm Pitch 0.4mm http://www.ti.com/lit/ds/symlink/txb0108.pdf")
  (tags "USON-20 2x4mm Pitch 0.4mm")
  (attr smd)
  (fp_text reference "REF**" (at 0 -3.5) (layer "F.SilkS")
      (effects (font (size 1 1) (thickness 0.15)))
    (tstamp 04a43f70-ac39-4c2c-899d-47b3e78476f9)
  )
  (fp_text value "USON-20_2x4mm_P0.4mm" (at 0 3.5) (layer "F.Fab")
      (effects (font (size 1 1) (thickness 0.15)))
    (tstamp 0546cfa7-e082-46a5-871f-21b5b388ff32)
  )
  (fp_text user "${REFERENCE}" (at 0 0 90) (layer "F.Fab")
      (effects (font (size 0.9 0.9) (thickness 0.15)))
    (tstamp 6f529ada-a68d-4724-93b4-0c798ff002f1)
  )
  (fp_line (start 1 -2.1) (end -1.5 -2.1)
    (stroke (width 0.12) (type solid)) (layer "F.SilkS") (tstamp 906527d1-c347-4254-a09a-817a0fc70a9e))
  (fp_line (start 1 2.1) (end -1 2.1)
    (stroke (width 0.12) (type solid)) (layer "F.SilkS") (tstamp 457d9ffb-556e-49b6-9b3e-75b8d60a031d))
  (fp_line (start -1.65 -2.25) (end 1.65 -2.25)
    (stroke (width 0.05) (type solid)) (layer "F.CrtYd") (tstamp 52d34b96-133b-4d97-bdd8-d1ca2a8aa301))
  (fp_line (start -1.65 2.25) (end -1.65 -2.25)
    (stroke (width 0.05) (type solid)) (layer "F.CrtYd") (tstamp 5614063c-1341-433d-aa92-9eb476a578d7))
  (fp_line (start 1.65 -2.25) (end 1.65 2.25)
    (stroke (width 0.05) (type solid)) (layer "F.CrtYd") (tstamp fc8033ec-27f7-4194-80fd-d3c7a651dcab))
  (fp_line (start 1.65 2.25) (end -1.65 2.25)
    (stroke (width 0.05) (type solid)) (layer "F.CrtYd") (tstamp c27cf5e8-1287-4bbe-9718-9d51e4264670))
  (fp_line (start -1 2) (end -1 -1.5)
    (stroke (width 0.1) (type solid)) (layer "F.Fab") (tstamp 37455eda-56f6-4851-bb58-5ecc23a13986))
  (fp_line (start -0.5 -2) (end -1 -1.5)
    (stroke (width 0.1) (type solid)) (layer "F.Fab") (tstamp cd32eee4-8674-45f8-9335-bf3ce89a16ea))
  (fp_line (start -0.5 -2) (end 1 -2)
    (stroke (width 0.1) (type solid)) (layer "F.Fab") (tstamp 65a55d93-160a-448d-a5c2-2ef8c766ce5d))
  (fp_line (start 1 -2) (end 1 2)
    (stroke (width 0.1) (type solid)) (layer "F.Fab") (tstamp 60ad1068-e714-4a1d-90d5-8ba6fc585217))
  (fp_line (start 1 2) (end -1 2)
    (stroke (width 0.1) (type solid)) (layer "F.Fab") (tstamp 64d1e57b-eb04-49f8-bd8b-4535eb5897c4))
  (pad "1" smd rect (at -0.85 -1.8 270) (size 0.2 1.1) (layers "F.Cu" "F.Paste" "F.Mask") (tstamp 129dc1f5-d695-4a3a-8e23-828205b6ceed))
  (pad "2" smd rect (at -0.9 -1.4 270) (size 0.2 1) (layers "F.Cu" "F.Paste" "F.Mask") (tstamp 99184f3e-870c-4ca4-98b6-4eeb8e280e97))
  (pad "3" smd rect (at -0.9 -1 270) (size 0.2 1) (layers "F.Cu" "F.Paste" "F.Mask") (tstamp 38a0cdf4-05a2-486f-a1a8-3c3da65ffbc4))
  (pad "4" smd rect (at -0.9 -0.6 270) (size 0.2 1) (layers "F.Cu" "F.Paste" "F.Mask") (tstamp 39e94f5e-0db1-4923-9be5-467e8e6835ea))
  (pad "5" smd rect (at -0.9 -0.2 270) (size 0.2 1) (layers "F.Cu" "F.Paste" "F.Mask") (tstamp 38b45618-24b9-45c7-8400-b83c600295b6))
  (pad "6" smd rect (at -0.9 0.2 270) (size 0.2 1) (layers "F.Cu" "F.Paste" "F.Mask") (tstamp cf75513d-65e0-4770-bfd1-68130d1eb82d))
  (pad "7" smd rect (at -0.9 0.6 270) (size 0.2 1) (layers "F.Cu" "F.Paste" "F.Mask") (tstamp 43cc9a1a-13fe-4d56-b394-c68e9e5141ea))
  (pad "8" smd rect (at -0.9 1 270) (size 0.2 1) (layers "F.Cu" "F.Paste" "F.Mask") (tstamp c1ca903c-0c59-4984-9796-246631ee6797))
  (pad "9" smd rect (at -0.9 1.4 270) (size 0.2 1) (layers "F.Cu" "F.Paste" "F.Mask") (tstamp 3763f504-ab8b-435d-a289-f61231f1deeb))
  (pad "10" smd rect (at -0.9 1.8 270) (size 0.2 1) (layers "F.Cu" "F.Paste" "F.Mask") (tstamp 0c7b0d97-8f42-48d2-92aa-bc287989b606))
  (pad "11" smd rect (at 0.9 1.8 270) (size 0.2 1) (layers "F.Cu" "F.Paste" "F.Mask") (tstamp 86e04bd8-56f2-4326-8cc7-46fe467fe1c7))
  (pad "12" smd rect (at 0.9 1.4 270) (size 0.2 1) (layers "F.Cu" "F.Paste" "F.Mask") (tstamp 6c7fafb4-a85c-4262-8b6e-06547e4c097e))
  (pad "13" smd rect (at 0.9 1 270) (size 0.2 1) (layers "F.Cu" "F.Paste" "F.Mask") (tstamp e2b4a05c-b032-42b2-a642-11e8f3327425))
  (pad "14" smd rect (at 0.9 0.6 270) (size 0.2 1) (layers "F.Cu" "F.Paste" "F.Mask") (tstamp 832402be-7044-4498-bd35-0f9271225e18))
  (pad "15" smd rect (at 0.9 0.2 270) (size 0.2 1) (layers "F.Cu" "F.Paste" "F.Mask") (tstamp bed7c8cf-ad25-4903-a8a7-a5fe6a84adb4))
  (pad "16" smd rect (at 0.9 -0.2 270) (size 0.2 1) (layers "F.Cu" "F.Paste" "F.Mask") (tstamp 9fc01d9a-31d4-4b26-85d3-c2eadfe3cd95))
  (pad "17" smd rect (at 0.9 -0.6 270) (size 0.2 1) (layers "F.Cu" "F.Paste" "F.Mask") (tstamp 8d18958d-c5ae-4e54-a0c5-29a98fc951d1))
  (pad "18" smd rect (at 0.9 -1 270) (size 0.2 1) (layers "F.Cu" "F.Paste" "F.Mask") (tstamp 5551401c-6452-4e42-8952-f599485344e5))
  (pad "19" smd rect (at 0.9 -1.4 270) (size 0.2 1) (layers "F.Cu" "F.Paste" "F.Mask") (tstamp 4092797d-57b4-4eec-8b47-61c648cbeb0f))
  (pad "20" smd rect (at 0.9 -1.8 270) (size 0.2 1) (layers "F.Cu" "F.Paste" "F.Mask") (tstamp 859bd81c-25b6-4b43-a257-515a472021aa))
  (model "${KICAD6_3DMODEL_DIR}/Package_SON.3dshapes/USON-20_2x4mm_P0.4mm.wrl"
    (offset (xyz 0 0 0))
    (scale (xyz 1 1 1))
    (rotate (xyz 0 0 0))
  )
)
