(footprint "WSON-10-1EP_4x3mm_P0.5mm_EP2.2x2mm" (version 20221018) (generator pcbnew)
  (layer "F.Cu")
  (descr "10-Lead Plastic WSON, 4x3mm Body, 0.5mm Pitch (http://www.ti.com/lit/ds/symlink/lm4990.pdf)")
  (tags "WSON 0.5")
  (attr smd)
  (fp_text reference "REF**" (at 0 -2.5) (layer "F.SilkS")
      (effects (font (size 1 1) (thickness 0.15)))
    (tstamp 3335b9c4-f2c1-4f2d-944a-98e14775a36a)
  )
  (fp_text value "WSON-10-1EP_4x3mm_P0.5mm_EP2.2x2mm" (at 0 2.5) (layer "F.Fab")
      (effects (font (size 1 1) (thickness 0.15)))
    (tstamp bb421124-cc5b-4da3-888f-6d10efdd6a56)
  )
  (fp_text user "${REFERENCE}" (at 0 0) (layer "F.Fab")
      (effects (font (size 1 1) (thickness 0.15)))
    (tstamp 3d2198e5-d3cd-46c6-b4dd-664ccd21d493)
  )
  (fp_line (start -2.12 -1.62) (end -1.2 -1.62)
    (stroke (width 0.12) (type solid)) (layer "F.SilkS") (tstamp d27372ea-5e3d-41df-accd-9c2dcce7e7f3))
  (fp_line (start -2.12 1.62) (end -2.12 0.7)
    (stroke (width 0.12) (type solid)) (layer "F.SilkS") (tstamp 7188b765-fc16-49a4-acbf-292b84c1ad69))
  (fp_line (start -2.12 1.62) (end -1.2 1.62)
    (stroke (width 0.12) (type solid)) (layer "F.SilkS") (tstamp 7b49e7ca-65f6-4471-b85d-2f7d146b5e0e))
  (fp_line (start 1.2 -1.62) (end 2.12 -1.62)
    (stroke (width 0.12) (type solid)) (layer "F.SilkS") (tstamp 350e9fab-f0be-4267-bc6b-aa2c89625b36))
  (fp_line (start 1.2 1.62) (end 2.12 1.62)
    (stroke (width 0.12) (type solid)) (layer "F.SilkS") (tstamp 9f1dbfd6-11ff-4f65-a000-080d58323237))
  (fp_line (start 2.12 -0.7) (end 2.12 -1.62)
    (stroke (width 0.12) (type solid)) (layer "F.SilkS") (tstamp 5a274006-92c1-486a-a898-3a4f9a5234ca))
  (fp_line (start 2.12 0.7) (end 2.12 1.62)
    (stroke (width 0.12) (type solid)) (layer "F.SilkS") (tstamp b4637c69-fc88-4f8a-a726-ae7ff089c4bc))
  (fp_line (start -2.25 -1.75) (end -2.25 1.75)
    (stroke (width 0.05) (type solid)) (layer "F.CrtYd") (tstamp 772ba2d6-deeb-49f2-8ed4-c527f5fb39ec))
  (fp_line (start -2.25 -1.75) (end 2.25 -1.75)
    (stroke (width 0.05) (type solid)) (layer "F.CrtYd") (tstamp 260e0598-34bd-483d-a003-36fcd717d23a))
  (fp_line (start -2.25 1.75) (end 2.25 1.75)
    (stroke (width 0.05) (type solid)) (layer "F.CrtYd") (tstamp d3c622fa-dedf-4364-a7f5-d5be70ac7191))
  (fp_line (start 2.25 -1.75) (end 2.25 1.75)
    (stroke (width 0.05) (type solid)) (layer "F.CrtYd") (tstamp ab6c8032-3c8d-4df3-b306-f2a317f947ee))
  (fp_line (start -2 1.5) (end -2 -0.5)
    (stroke (width 0.1) (type solid)) (layer "F.Fab") (tstamp 20844ac5-b39d-48b3-b72a-cd50d4e4c4cc))
  (fp_line (start -1 -1.5) (end -2 -0.5)
    (stroke (width 0.1) (type solid)) (layer "F.Fab") (tstamp 3ac74aea-0a40-4fed-809b-97dd119e3e03))
  (fp_line (start -1 -1.5) (end 2 -1.5)
    (stroke (width 0.1) (type solid)) (layer "F.Fab") (tstamp db597835-d0f7-4f43-9261-b26e96bff5de))
  (fp_line (start 2 -1.5) (end 2 1.5)
    (stroke (width 0.1) (type solid)) (layer "F.Fab") (tstamp aff9a643-c896-4a73-945b-405f16521611))
  (fp_line (start 2 1.5) (end -2 1.5)
    (stroke (width 0.1) (type solid)) (layer "F.Fab") (tstamp 9ad8c831-c122-424e-9a6c-6edc2cf71afe))
  (pad "" smd rect (at -0.55 -0.5) (size 0.88 0.8) (layers "F.Paste") (tstamp cc76d083-2f24-413d-b73a-ab66a9e2b6e2))
  (pad "" smd rect (at -0.55 0.5) (size 0.88 0.8) (layers "F.Paste") (tstamp 3b7f2c30-2242-4a37-a553-ffbe42ac73bd))
  (pad "" smd rect (at 0.55 -0.5) (size 0.88 0.8) (layers "F.Paste") (tstamp f07950af-bc97-4391-97fa-cad96b8657e7))
  (pad "" smd rect (at 0.55 0.5) (size 0.88 0.8) (layers "F.Paste") (tstamp 1f4d66a4-93bb-4f05-88a3-e7bd5d8802ab))
  (pad "1" smd rect (at -1.65 -1) (size 0.5 0.25) (layers "F.Cu" "F.Paste" "F.Mask") (tstamp a27b57b0-7feb-4d12-9b73-ffab33e2a3cc))
  (pad "2" smd rect (at -1.65 -0.5) (size 0.5 0.25) (layers "F.Cu" "F.Paste" "F.Mask") (tstamp b1340f87-4fef-4ba0-984e-a0115eab6dfc))
  (pad "3" smd rect (at -1.65 0) (size 0.5 0.25) (layers "F.Cu" "F.Paste" "F.Mask") (tstamp 5c698fbf-cd71-41da-b6d5-852b92363223))
  (pad "4" smd rect (at -1.65 0.5) (size 0.5 0.25) (layers "F.Cu" "F.Paste" "F.Mask") (tstamp e3fee54a-328a-4504-a4df-0077b7cf4dba))
  (pad "5" smd rect (at -1.65 1) (size 0.5 0.25) (layers "F.Cu" "F.Paste" "F.Mask") (tstamp 5b6fffe1-0144-4670-a24d-7394ffd5a11e))
  (pad "6" smd rect (at 1.65 1) (size 0.5 0.25) (layers "F.Cu" "F.Paste" "F.Mask") (tstamp 0c8d68aa-669a-4878-8477-debc57a1f349))
  (pad "7" smd rect (at 1.65 0.5) (size 0.5 0.25) (layers "F.Cu" "F.Paste" "F.Mask") (tstamp 517528e9-4f3b-4971-90a7-6567c47ba03a))
  (pad "8" smd rect (at 1.65 0) (size 0.5 0.25) (layers "F.Cu" "F.Paste" "F.Mask") (tstamp ab3fee89-e516-4f76-a138-9118322f0081))
  (pad "9" smd rect (at 1.65 -0.5) (size 0.5 0.25) (layers "F.Cu" "F.Paste" "F.Mask") (tstamp 38c9233b-3d67-4804-a64c-9d34f29e8617))
  (pad "10" smd rect (at 1.65 -1) (size 0.5 0.25) (layers "F.Cu" "F.Paste" "F.Mask") (tstamp 90ec9286-240e-423f-8e75-37806aa35607))
  (pad "11" smd rect (at 0 0) (size 2.2 2) (layers "F.Cu" "F.Mask") (tstamp 15686bbc-ef80-451d-9092-46676518723e))
  (model "${KICAD6_3DMODEL_DIR}/Package_SON.3dshapes/WSON-10-1EP_4x3mm_P0.5mm_EP2.2x2mm.wrl"
    (offset (xyz 0 0 0))
    (scale (xyz 1 1 1))
    (rotate (xyz 0 0 0))
  )
)
