(footprint "Texas_DSBGA-16_2.39x2.39mm_Layout4x4_P0.5mm" (version 20221018) (generator pcbnew)
  (layer "F.Cu")
  (descr "Texas Instruments, DSBGA, area grid, YZF, YZF0016, 2.39x2.39mm, 16 Ball, 4x4 Layout, 0.5mm Pitch, https://www.ti.com/lit/ds/symlink/dac80508.pdf")
  (tags "BGA 16 0.5")
  (solder_mask_margin 0.05)
  (attr smd)
  (fp_text reference "REF**" (at 0 -2.5) (layer "F.SilkS")
      (effects (font (size 1 1) (thickness 0.15)))
    (tstamp 2fce24ca-5d78-4518-8249-db3041beb923)
  )
  (fp_text value "Texas_DSBGA-16_2.39x2.39mm_Layout4x4_P0.5mm" (at 0 2.195) (layer "F.Fab")
      (effects (font (size 1 1) (thickness 0.15)))
    (tstamp 29526ddb-a812-4c94-b649-c7798518d6a6)
  )
  (fp_text user "${REFERENCE}" (at 0 0) (layer "F.Fab")
      (effects (font (size 0.56 0.56) (thickness 0.084)))
    (tstamp 0fccee8c-4cd2-49cc-9691-979ae8f53f63)
  )
  (fp_line (start -1.305 1.305) (end -1.305 -0.985)
    (stroke (width 0.12) (type solid)) (layer "F.SilkS") (tstamp e79c3544-4921-4188-9581-d31aeb0f023e))
  (fp_line (start 1.305 -1.305) (end -0.985 -1.305)
    (stroke (width 0.12) (type solid)) (layer "F.SilkS") (tstamp ff28307c-4434-4e16-8c9b-f1af0b78ac71))
  (fp_line (start 1.305 -1.305) (end 1.305 1.305)
    (stroke (width 0.12) (type solid)) (layer "F.SilkS") (tstamp 8886191a-693e-4924-b084-f5617759fef7))
  (fp_line (start 1.305 1.305) (end -1.305 1.305)
    (stroke (width 0.12) (type solid)) (layer "F.SilkS") (tstamp 8e6ea26a-dab6-49b6-a8a0-9b33e122428a))
  (fp_poly
    (pts
      (xy -1.305 -1.305)
      (xy -1.805 -1.305)
      (xy -1.305 -1.805)
      (xy -1.305 -1.305)
    )

    (stroke (width 0.12) (type solid)) (fill solid) (layer "F.SilkS") (tstamp c3a051a7-2fd6-4151-bb8b-776d701e8883))
  (fp_line (start -2.2 -2.2) (end -2.2 2.2)
    (stroke (width 0.05) (type solid)) (layer "F.CrtYd") (tstamp c92162ce-a466-4bec-b118-96d023e8a590))
  (fp_line (start -2.2 2.2) (end 2.2 2.2)
    (stroke (width 0.05) (type solid)) (layer "F.CrtYd") (tstamp e935c0e3-bfe4-4085-905c-31fcd7f78518))
  (fp_line (start 2.2 -2.2) (end -2.2 -2.2)
    (stroke (width 0.05) (type solid)) (layer "F.CrtYd") (tstamp 5c164758-5323-45b9-9831-31b858b0657f))
  (fp_line (start 2.2 2.2) (end 2.2 -2.2)
    (stroke (width 0.05) (type solid)) (layer "F.CrtYd") (tstamp f3dd539a-5e32-4c89-a925-0ade55d2ca88))
  (fp_line (start -1.195 -0.5975) (end -0.5975 -1.195)
    (stroke (width 0.1) (type solid)) (layer "F.Fab") (tstamp be2acfa0-4fe5-4c50-9385-17486e9f6883))
  (fp_line (start -1.195 1.195) (end -1.195 -0.5975)
    (stroke (width 0.1) (type solid)) (layer "F.Fab") (tstamp 05d26fe7-28b5-4c32-a4c8-3df2354c09a0))
  (fp_line (start -0.5975 -1.195) (end 1.195 -1.195)
    (stroke (width 0.1) (type solid)) (layer "F.Fab") (tstamp ade59d0e-cade-4984-8bbe-4c2f10fbdb32))
  (fp_line (start 1.195 -1.195) (end 1.195 1.195)
    (stroke (width 0.1) (type solid)) (layer "F.Fab") (tstamp 33a015c7-c7b8-4ad1-a9b3-dabf1f5c0f93))
  (fp_line (start 1.195 1.195) (end -1.195 1.195)
    (stroke (width 0.1) (type solid)) (layer "F.Fab") (tstamp b19be0b1-acb9-424b-a88b-b9db38a19576))
  (pad "" smd roundrect (at -0.75 -0.75) (size 0.25 0.25) (layers "F.Paste") (roundrect_rratio 0.2) (tstamp 36b5931b-60c2-4c96-a70a-8f6eaa28a046))
  (pad "" smd roundrect (at -0.75 -0.25) (size 0.25 0.25) (layers "F.Paste") (roundrect_rratio 0.2) (tstamp a6063cfd-fdfa-4c6b-ae0e-8a737873311f))
  (pad "" smd roundrect (at -0.75 0.25) (size 0.25 0.25) (layers "F.Paste") (roundrect_rratio 0.2) (tstamp 6f57e940-52b2-4185-b848-2828e08ff978))
  (pad "" smd roundrect (at -0.75 0.75) (size 0.25 0.25) (layers "F.Paste") (roundrect_rratio 0.2) (tstamp 35a346b0-dec0-4db8-81c2-5d61b1ba2ddc))
  (pad "" smd roundrect (at -0.25 -0.75) (size 0.25 0.25) (layers "F.Paste") (roundrect_rratio 0.2) (tstamp 8e5dc330-9e1c-4e38-905e-b2d0e99a77ed))
  (pad "" smd roundrect (at -0.25 -0.25) (size 0.25 0.25) (layers "F.Paste") (roundrect_rratio 0.2) (tstamp bf57c692-0a52-439c-94d7-94d8f7866800))
  (pad "" smd roundrect (at -0.25 0.25) (size 0.25 0.25) (layers "F.Paste") (roundrect_rratio 0.2) (tstamp 92ef8f77-7944-45cc-9c89-1c4c2735f72e))
  (pad "" smd roundrect (at -0.25 0.75) (size 0.25 0.25) (layers "F.Paste") (roundrect_rratio 0.2) (tstamp 5190e2d4-255e-4074-b020-e9acaaf87bb9))
  (pad "" smd roundrect (at 0.25 -0.75) (size 0.25 0.25) (layers "F.Paste") (roundrect_rratio 0.2) (tstamp e33baf27-00e1-40f3-a7bb-fadb31e881cf))
  (pad "" smd roundrect (at 0.25 -0.25) (size 0.25 0.25) (layers "F.Paste") (roundrect_rratio 0.2) (tstamp fb12ea18-c03a-4c21-9bc4-f9395e4593d7))
  (pad "" smd roundrect (at 0.25 0.25) (size 0.25 0.25) (layers "F.Paste") (roundrect_rratio 0.2) (tstamp ee8121bb-13eb-4fc6-989a-c93d1cd70aa2))
  (pad "" smd roundrect (at 0.25 0.75) (size 0.25 0.25) (layers "F.Paste") (roundrect_rratio 0.2) (tstamp a60eb26d-8bb9-4ada-ae11-7b6de2218aeb))
  (pad "" smd roundrect (at 0.75 -0.75) (size 0.25 0.25) (layers "F.Paste") (roundrect_rratio 0.2) (tstamp dd9e655c-f373-4710-8992-ee4965da346a))
  (pad "" smd roundrect (at 0.75 -0.25) (size 0.25 0.25) (layers "F.Paste") (roundrect_rratio 0.2) (tstamp a63ecf17-cb74-49a0-ab82-3897e81106b9))
  (pad "" smd roundrect (at 0.75 0.25) (size 0.25 0.25) (layers "F.Paste") (roundrect_rratio 0.2) (tstamp 43b9f54e-e759-48d3-acb8-e2d6695765ea))
  (pad "" smd roundrect (at 0.75 0.75) (size 0.25 0.25) (layers "F.Paste") (roundrect_rratio 0.2) (tstamp 571ebe68-2d96-48a4-ab90-42d80b4d5ff5))
  (pad "A1" smd circle (at -0.75 -0.75) (size 0.245 0.245) (layers "F.Cu" "F.Mask") (tstamp 4afdc223-5870-4e47-94d8-ea9f4adfc10d))
  (pad "A2" smd circle (at -0.25 -0.75) (size 0.245 0.245) (layers "F.Cu" "F.Mask") (tstamp 075a5eb6-dbbd-4b5f-83cf-e9d353c520a0))
  (pad "A3" smd circle (at 0.25 -0.75) (size 0.245 0.245) (layers "F.Cu" "F.Mask") (tstamp b18e660c-4dda-4f8e-a636-fed9cba88caa))
  (pad "A4" smd circle (at 0.75 -0.75) (size 0.245 0.245) (layers "F.Cu" "F.Mask") (tstamp cf3e89f2-d867-4d45-bdbd-0e3c0acb689d))
  (pad "B1" smd circle (at -0.75 -0.25) (size 0.245 0.245) (layers "F.Cu" "F.Mask") (tstamp 51326960-0374-4ecd-bd21-4c68ac52c9c9))
  (pad "B2" smd circle (at -0.25 -0.25) (size 0.245 0.245) (layers "F.Cu" "F.Mask") (tstamp 3b309d0d-a219-4aba-b632-e3f29e24037f))
  (pad "B3" smd circle (at 0.25 -0.25) (size 0.245 0.245) (layers "F.Cu" "F.Mask") (tstamp f9f43398-a29e-46d7-a397-2da20ad19f7f))
  (pad "B4" smd circle (at 0.75 -0.25) (size 0.245 0.245) (layers "F.Cu" "F.Mask") (tstamp e778accd-49f4-4957-b44b-ad372a602cfd))
  (pad "C1" smd circle (at -0.75 0.25) (size 0.245 0.245) (layers "F.Cu" "F.Mask") (tstamp dcaf532a-8d1e-4e81-ae91-086f777025a9))
  (pad "C2" smd circle (at -0.25 0.25) (size 0.245 0.245) (layers "F.Cu" "F.Mask") (tstamp 631282b2-4118-4ff6-a8c4-99c6f9facc6b))
  (pad "C3" smd circle (at 0.25 0.25) (size 0.245 0.245) (layers "F.Cu" "F.Mask") (tstamp f30b017d-7e79-4b03-838c-ee937f9adb4e))
  (pad "C4" smd circle (at 0.75 0.25) (size 0.245 0.245) (layers "F.Cu" "F.Mask") (tstamp 1b0efb10-7b3d-4139-8a4d-231c8fac3c47))
  (pad "D1" smd circle (at -0.75 0.75) (size 0.245 0.245) (layers "F.Cu" "F.Mask") (tstamp 456e6495-ee64-4cd5-a913-43832d01d56b))
  (pad "D2" smd circle (at -0.25 0.75) (size 0.245 0.245) (layers "F.Cu" "F.Mask") (tstamp 8eb714d6-097e-407d-b50a-406d2ebbb2e4))
  (pad "D3" smd circle (at 0.25 0.75) (size 0.245 0.245) (layers "F.Cu" "F.Mask") (tstamp 2b7df15a-254a-4c5e-bcfb-6c3d9fa9c556))
  (pad "D4" smd circle (at 0.75 0.75) (size 0.245 0.245) (layers "F.Cu" "F.Mask") (tstamp e2dc8aa7-8840-497e-b80a-f937349ebeaa))
  (model "${KICAD6_3DMODEL_DIR}/Package_BGA.3dshapes/Texas_DSBGA-16_2.39x2.39mm_Layout4x4_P0.5mm.wrl"
    (offset (xyz 0 0 0))
    (scale (xyz 1 1 1))
    (rotate (xyz 0 0 0))
  )
)
