(footprint "NXP_LQFN-48-1EP_7x7mm_P0.5mm_EP3.5x3.5mm_16xMask0.45x0.45" (version 20221018) (generator pcbnew)
  (layer "F.Cu")
  (descr "LQFN, 48 Pin (https://www.nxp.com/docs/en/package-information/98ASA00694D.pdf)")
  (tags "NXP LQFN NoLead")
  (attr smd)
  (fp_text reference "REF**" (at 0 -4.82) (layer "F.SilkS")
      (effects (font (size 1 1) (thickness 0.15)))
    (tstamp 7e5c88a1-ea4a-468f-a83e-79e13fa4010d)
  )
  (fp_text value "NXP_LQFN-48-1EP_7x7mm_P0.5mm_EP3.5x3.5mm_16xMask0.45x0.45" (at 0 4.82) (layer "F.Fab")
      (effects (font (size 1 1) (thickness 0.15)))
    (tstamp fcbbc855-229b-4d5f-a199-23100caa441e)
  )
  (fp_text user "${REFERENCE}" (at 0 0) (layer "F.Fab")
      (effects (font (size 1 1) (thickness 0.15)))
    (tstamp d93edef3-54ed-4494-ae36-6d504f8b4c52)
  )
  (fp_line (start -3.61 3.61) (end -3.61 3.16)
    (stroke (width 0.12) (type solid)) (layer "F.SilkS") (tstamp 6366e485-01b9-4496-94a6-5d8e0d6f813c))
  (fp_line (start -3.16 -3.61) (end -3.61 -3.61)
    (stroke (width 0.12) (type solid)) (layer "F.SilkS") (tstamp 31822aa6-9b0d-4b8d-901f-1551b4dd749e))
  (fp_line (start -3.16 3.61) (end -3.61 3.61)
    (stroke (width 0.12) (type solid)) (layer "F.SilkS") (tstamp 12c5e74e-ec3d-4876-a48d-ee71d0610fba))
  (fp_line (start 3.16 -3.61) (end 3.61 -3.61)
    (stroke (width 0.12) (type solid)) (layer "F.SilkS") (tstamp 2336358e-46f4-4131-898b-e59afc164146))
  (fp_line (start 3.16 3.61) (end 3.61 3.61)
    (stroke (width 0.12) (type solid)) (layer "F.SilkS") (tstamp 39d01997-a88b-4f64-9b65-e0f9e7178ae6))
  (fp_line (start 3.61 -3.61) (end 3.61 -3.16)
    (stroke (width 0.12) (type solid)) (layer "F.SilkS") (tstamp 23f991b0-9fb2-49cf-bce1-bab2e041e3c6))
  (fp_line (start 3.61 3.61) (end 3.61 3.16)
    (stroke (width 0.12) (type solid)) (layer "F.SilkS") (tstamp 0b7962d0-9fc5-483a-a681-dcaaebc091c2))
  (fp_line (start -4.12 -4.12) (end -4.12 4.12)
    (stroke (width 0.05) (type solid)) (layer "F.CrtYd") (tstamp b6bc0937-a93e-47db-9aea-d93d1cbe887a))
  (fp_line (start -4.12 4.12) (end 4.12 4.12)
    (stroke (width 0.05) (type solid)) (layer "F.CrtYd") (tstamp 1803a15f-e2b3-49e6-be49-8ea1d97dbca1))
  (fp_line (start 4.12 -4.12) (end -4.12 -4.12)
    (stroke (width 0.05) (type solid)) (layer "F.CrtYd") (tstamp 65675dec-ea0c-47b7-8430-55db3258dabe))
  (fp_line (start 4.12 4.12) (end 4.12 -4.12)
    (stroke (width 0.05) (type solid)) (layer "F.CrtYd") (tstamp 4d4ff38f-604c-4661-8aa8-e2d8eace98a0))
  (fp_line (start -3.5 -2.5) (end -2.5 -3.5)
    (stroke (width 0.1) (type solid)) (layer "F.Fab") (tstamp 7e556bf1-8643-4651-bbf5-502f462d8b4e))
  (fp_line (start -3.5 3.5) (end -3.5 -2.5)
    (stroke (width 0.1) (type solid)) (layer "F.Fab") (tstamp caf80fca-053a-4dc5-af69-c0bae9d2fcc2))
  (fp_line (start -2.5 -3.5) (end 3.5 -3.5)
    (stroke (width 0.1) (type solid)) (layer "F.Fab") (tstamp b6df7a23-af62-4297-b4cc-37a1a711d4db))
  (fp_line (start 3.5 -3.5) (end 3.5 3.5)
    (stroke (width 0.1) (type solid)) (layer "F.Fab") (tstamp 1f202e6c-3188-40e5-b427-b05ae9699b65))
  (fp_line (start 3.5 3.5) (end -3.5 3.5)
    (stroke (width 0.1) (type solid)) (layer "F.Fab") (tstamp 07ed2c6f-2905-4807-9f77-960ca0eb8ee7))
  (pad "" smd rect (at -1.5 -1.5) (size 0.45 0.45) (layers "F.Paste" "F.Mask") (tstamp e1600065-ad0a-43cf-9e9f-1d4e9f239374))
  (pad "" smd rect (at -1.5 -0.5) (size 0.45 0.45) (layers "F.Paste" "F.Mask") (tstamp 809114c0-6151-433b-bc77-b11a39c03848))
  (pad "" smd rect (at -1.5 0.5) (size 0.45 0.45) (layers "F.Paste" "F.Mask") (tstamp c00a7e10-585f-4485-abef-dd0170ce0dd1))
  (pad "" smd rect (at -1.5 1.5) (size 0.45 0.45) (layers "F.Paste" "F.Mask") (tstamp a397d686-c089-46fd-b3d1-858cc92af559))
  (pad "" smd rect (at -0.5 -1.5) (size 0.45 0.45) (layers "F.Paste" "F.Mask") (tstamp daef163e-0b39-43bf-b0b7-a7f518440d78))
  (pad "" smd rect (at -0.5 -0.5) (size 0.45 0.45) (layers "F.Paste" "F.Mask") (tstamp b35986b5-c00f-4056-89e7-f594506a67ce))
  (pad "" smd rect (at -0.5 0.5) (size 0.45 0.45) (layers "F.Paste" "F.Mask") (tstamp bac6defe-6449-4783-ad92-9a37b09eb344))
  (pad "" smd rect (at -0.5 1.5) (size 0.45 0.45) (layers "F.Paste" "F.Mask") (tstamp f15e655c-e829-4661-8a2a-3e45bc91b14f))
  (pad "" smd rect (at 0.5 -1.5) (size 0.45 0.45) (layers "F.Paste" "F.Mask") (tstamp dfe60e37-fe66-427e-9940-fec27b7c34ae))
  (pad "" smd rect (at 0.5 -0.5) (size 0.45 0.45) (layers "F.Paste" "F.Mask") (tstamp 492519a6-c2c8-4e5f-a8c6-176355e279f6))
  (pad "" smd rect (at 0.5 0.5) (size 0.45 0.45) (layers "F.Paste" "F.Mask") (tstamp a6e4dc88-ab6a-4e7a-8557-434b75e5c03e))
  (pad "" smd rect (at 0.5 1.5) (size 0.45 0.45) (layers "F.Paste" "F.Mask") (tstamp 3acd07c9-eedd-41d3-b7ad-0d938870399b))
  (pad "" smd rect (at 1.5 -1.5) (size 0.45 0.45) (layers "F.Paste" "F.Mask") (tstamp c3c301b8-f580-4bcb-8107-82853826af86))
  (pad "" smd rect (at 1.5 -0.5) (size 0.45 0.45) (layers "F.Paste" "F.Mask") (tstamp 908bfdfe-b1d5-454d-a36d-81d412c9ff1e))
  (pad "" smd rect (at 1.5 0.5) (size 0.45 0.45) (layers "F.Paste" "F.Mask") (tstamp 325091c5-27e4-4273-a31a-f955241174c6))
  (pad "" smd rect (at 1.5 1.5) (size 0.45 0.45) (layers "F.Paste" "F.Mask") (tstamp 11e62e2a-8d4a-4105-a904-603b1407981a))
  (pad "1" smd roundrect (at -3.375 -2.75) (size 0.85 0.27) (layers "F.Cu" "F.Paste" "F.Mask") (roundrect_rratio 0.25) (tstamp d3564c60-a8cc-44b5-9c83-704d7114b137))
  (pad "2" smd roundrect (at -3.375 -2.25) (size 0.85 0.27) (layers "F.Cu" "F.Paste" "F.Mask") (roundrect_rratio 0.25) (tstamp 5749a782-4b07-42be-8812-41e24f629de3))
  (pad "3" smd roundrect (at -3.375 -1.75) (size 0.85 0.27) (layers "F.Cu" "F.Paste" "F.Mask") (roundrect_rratio 0.25) (tstamp df5cd03e-5f36-40ce-a9e5-c3b36d1e8a86))
  (pad "4" smd roundrect (at -3.375 -1.25) (size 0.85 0.27) (layers "F.Cu" "F.Paste" "F.Mask") (roundrect_rratio 0.25) (tstamp cd4b6c80-fe33-4ad0-add9-297ddefa1083))
  (pad "5" smd roundrect (at -3.375 -0.75) (size 0.85 0.27) (layers "F.Cu" "F.Paste" "F.Mask") (roundrect_rratio 0.25) (tstamp 3444a19d-b589-4b87-ba01-0db3b8692280))
  (pad "6" smd roundrect (at -3.375 -0.25) (size 0.85 0.27) (layers "F.Cu" "F.Paste" "F.Mask") (roundrect_rratio 0.25) (tstamp 7acd8b19-27a8-4ca4-a35a-4905448fd901))
  (pad "7" smd roundrect (at -3.375 0.25) (size 0.85 0.27) (layers "F.Cu" "F.Paste" "F.Mask") (roundrect_rratio 0.25) (tstamp 3baa691f-6985-4bd7-8660-3b9b2b18e5fd))
  (pad "8" smd roundrect (at -3.375 0.75) (size 0.85 0.27) (layers "F.Cu" "F.Paste" "F.Mask") (roundrect_rratio 0.25) (tstamp 9ce21a28-25dd-48bf-a5e0-ed5b86db4b6b))
  (pad "9" smd roundrect (at -3.375 1.25) (size 0.85 0.27) (layers "F.Cu" "F.Paste" "F.Mask") (roundrect_rratio 0.25) (tstamp ddd28d9a-49ad-4816-9e4c-e09a294a7714))
  (pad "10" smd roundrect (at -3.375 1.75) (size 0.85 0.27) (layers "F.Cu" "F.Paste" "F.Mask") (roundrect_rratio 0.25) (tstamp 1961ea41-0482-41b2-a675-f5d7b35a2afc))
  (pad "11" smd roundrect (at -3.375 2.25) (size 0.85 0.27) (layers "F.Cu" "F.Paste" "F.Mask") (roundrect_rratio 0.25) (tstamp 50f09316-919b-48a7-9e46-79c8550ac47c))
  (pad "12" smd roundrect (at -3.375 2.75) (size 0.85 0.27) (layers "F.Cu" "F.Paste" "F.Mask") (roundrect_rratio 0.25) (tstamp 597b0aad-31ce-4524-916b-46c3efb774bb))
  (pad "13" smd roundrect (at -2.75 3.375) (size 0.27 0.85) (layers "F.Cu" "F.Paste" "F.Mask") (roundrect_rratio 0.25) (tstamp a948eef2-b7db-4e68-85ca-de9eff49da24))
  (pad "14" smd roundrect (at -2.25 3.375) (size 0.27 0.85) (layers "F.Cu" "F.Paste" "F.Mask") (roundrect_rratio 0.25) (tstamp 697b2250-b7eb-4c04-9534-f8a4c63d3503))
  (pad "15" smd roundrect (at -1.75 3.375) (size 0.27 0.85) (layers "F.Cu" "F.Paste" "F.Mask") (roundrect_rratio 0.25) (tstamp 5e96dd4b-4a03-4389-a656-00a54d72da05))
  (pad "16" smd roundrect (at -1.25 3.375) (size 0.27 0.85) (layers "F.Cu" "F.Paste" "F.Mask") (roundrect_rratio 0.25) (tstamp 7059c16d-eb6c-4330-8e26-1ca77f7544a0))
  (pad "17" smd roundrect (at -0.75 3.375) (size 0.27 0.85) (layers "F.Cu" "F.Paste" "F.Mask") (roundrect_rratio 0.25) (tstamp 2098abe9-a2df-41a0-8c83-e31081096c12))
  (pad "18" smd roundrect (at -0.25 3.375) (size 0.27 0.85) (layers "F.Cu" "F.Paste" "F.Mask") (roundrect_rratio 0.25) (tstamp 91548246-db96-4fec-bf1c-3351e4edcb2f))
  (pad "19" smd roundrect (at 0.25 3.375) (size 0.27 0.85) (layers "F.Cu" "F.Paste" "F.Mask") (roundrect_rratio 0.25) (tstamp b458995e-2b09-44b3-9e44-fc926baed106))
  (pad "20" smd roundrect (at 0.75 3.375) (size 0.27 0.85) (layers "F.Cu" "F.Paste" "F.Mask") (roundrect_rratio 0.25) (tstamp 84773f87-4fa8-4e74-9f5d-b63dcaa73f8a))
  (pad "21" smd roundrect (at 1.25 3.375) (size 0.27 0.85) (layers "F.Cu" "F.Paste" "F.Mask") (roundrect_rratio 0.25) (tstamp b72e6ccd-1834-41d9-b1de-601af6f5063c))
  (pad "22" smd roundrect (at 1.75 3.375) (size 0.27 0.85) (layers "F.Cu" "F.Paste" "F.Mask") (roundrect_rratio 0.25) (tstamp 6e2eb5c5-8c80-4b14-9613-cac1ef4910c5))
  (pad "23" smd roundrect (at 2.25 3.375) (size 0.27 0.85) (layers "F.Cu" "F.Paste" "F.Mask") (roundrect_rratio 0.25) (tstamp 4f3887fb-82a1-44b1-808d-fa34b6dd4045))
  (pad "24" smd roundrect (at 2.75 3.375) (size 0.27 0.85) (layers "F.Cu" "F.Paste" "F.Mask") (roundrect_rratio 0.25) (tstamp eb961923-3f4e-49f6-bbbd-ab5cf3a5743a))
  (pad "25" smd roundrect (at 3.375 2.75) (size 0.85 0.27) (layers "F.Cu" "F.Paste" "F.Mask") (roundrect_rratio 0.25) (tstamp 9566fcdb-a373-4e9c-a1e5-cb630678a318))
  (pad "26" smd roundrect (at 3.375 2.25) (size 0.85 0.27) (layers "F.Cu" "F.Paste" "F.Mask") (roundrect_rratio 0.25) (tstamp 8b383c9f-e859-4d4b-be04-15ffb1f4e8c8))
  (pad "27" smd roundrect (at 3.375 1.75) (size 0.85 0.27) (layers "F.Cu" "F.Paste" "F.Mask") (roundrect_rratio 0.25) (tstamp a6f8ff4a-1ea6-42dc-94be-3047069fd0fe))
  (pad "28" smd roundrect (at 3.375 1.25) (size 0.85 0.27) (layers "F.Cu" "F.Paste" "F.Mask") (roundrect_rratio 0.25) (tstamp e4ea7aa7-dcfd-41b7-ab75-5808459cc105))
  (pad "29" smd roundrect (at 3.375 0.75) (size 0.85 0.27) (layers "F.Cu" "F.Paste" "F.Mask") (roundrect_rratio 0.25) (tstamp 935cd787-dbed-47a0-a766-fd14dff63e4d))
  (pad "30" smd roundrect (at 3.375 0.25) (size 0.85 0.27) (layers "F.Cu" "F.Paste" "F.Mask") (roundrect_rratio 0.25) (tstamp d8e127ce-9fca-446c-a24e-8f8d2a4bcff5))
  (pad "31" smd roundrect (at 3.375 -0.25) (size 0.85 0.27) (layers "F.Cu" "F.Paste" "F.Mask") (roundrect_rratio 0.25) (tstamp 7dc9e0b0-b4e6-4eee-954d-37cff1b9a719))
  (pad "32" smd roundrect (at 3.375 -0.75) (size 0.85 0.27) (layers "F.Cu" "F.Paste" "F.Mask") (roundrect_rratio 0.25) (tstamp 5fd09ab7-e910-4e2d-b044-b3dfc9351d6c))
  (pad "33" smd roundrect (at 3.375 -1.25) (size 0.85 0.27) (layers "F.Cu" "F.Paste" "F.Mask") (roundrect_rratio 0.25) (tstamp debf529a-0fa6-4097-ab8d-5721ebdf9385))
  (pad "34" smd roundrect (at 3.375 -1.75) (size 0.85 0.27) (layers "F.Cu" "F.Paste" "F.Mask") (roundrect_rratio 0.25) (tstamp dbdd552d-d25c-443a-a42a-0f5bd55f90a2))
  (pad "35" smd roundrect (at 3.375 -2.25) (size 0.85 0.27) (layers "F.Cu" "F.Paste" "F.Mask") (roundrect_rratio 0.25) (tstamp 8ab39fe8-18b8-4309-abec-4379b3e7f39c))
  (pad "36" smd roundrect (at 3.375 -2.75) (size 0.85 0.27) (layers "F.Cu" "F.Paste" "F.Mask") (roundrect_rratio 0.25) (tstamp e3a93a40-b22d-4eba-875f-d8221e5704ea))
  (pad "37" smd roundrect (at 2.75 -3.375) (size 0.27 0.85) (layers "F.Cu" "F.Paste" "F.Mask") (roundrect_rratio 0.25) (tstamp f2b06479-bf46-4963-8b57-a65d70f1cc86))
  (pad "38" smd roundrect (at 2.25 -3.375) (size 0.27 0.85) (layers "F.Cu" "F.Paste" "F.Mask") (roundrect_rratio 0.25) (tstamp c803cb81-076b-41ad-9f6f-393c267b93ba))
  (pad "39" smd roundrect (at 1.75 -3.375) (size 0.27 0.85) (layers "F.Cu" "F.Paste" "F.Mask") (roundrect_rratio 0.25) (tstamp 33f50736-086d-4277-91ef-24f776702fa1))
  (pad "40" smd roundrect (at 1.25 -3.375) (size 0.27 0.85) (layers "F.Cu" "F.Paste" "F.Mask") (roundrect_rratio 0.25) (tstamp 008fd858-8591-4943-8d73-7903a4d65331))
  (pad "41" smd roundrect (at 0.75 -3.375) (size 0.27 0.85) (layers "F.Cu" "F.Paste" "F.Mask") (roundrect_rratio 0.25) (tstamp 0b889669-f403-4d69-b2a7-f9ad2e009b3e))
  (pad "42" smd roundrect (at 0.25 -3.375) (size 0.27 0.85) (layers "F.Cu" "F.Paste" "F.Mask") (roundrect_rratio 0.25) (tstamp 1c3e9677-155e-475f-bc5f-1a180098e3ef))
  (pad "43" smd roundrect (at -0.25 -3.375) (size 0.27 0.85) (layers "F.Cu" "F.Paste" "F.Mask") (roundrect_rratio 0.25) (tstamp 4af2d540-807f-4ee0-a910-ca3e8e3b0f26))
  (pad "44" smd roundrect (at -0.75 -3.375) (size 0.27 0.85) (layers "F.Cu" "F.Paste" "F.Mask") (roundrect_rratio 0.25) (tstamp 76bccea7-f6df-4af2-8c9f-1e8bdbdad227))
  (pad "45" smd roundrect (at -1.25 -3.375) (size 0.27 0.85) (layers "F.Cu" "F.Paste" "F.Mask") (roundrect_rratio 0.25) (tstamp 52cd9acd-6fc6-4ae0-a57f-d93c211e458e))
  (pad "46" smd roundrect (at -1.75 -3.375) (size 0.27 0.85) (layers "F.Cu" "F.Paste" "F.Mask") (roundrect_rratio 0.25) (tstamp 56f078a5-ec23-4fcc-92f3-a33c0826b200))
  (pad "47" smd roundrect (at -2.25 -3.375) (size 0.27 0.85) (layers "F.Cu" "F.Paste" "F.Mask") (roundrect_rratio 0.25) (tstamp 19c71c27-4e92-4957-b567-a84b25d2e554))
  (pad "48" smd roundrect (at -2.75 -3.375) (size 0.27 0.85) (layers "F.Cu" "F.Paste" "F.Mask") (roundrect_rratio 0.25) (tstamp 9eade143-1be3-426a-8cde-8e2ee867267b))
  (pad "49" smd rect (at 0 0) (size 3.5 3.5) (layers "F.Cu") (tstamp 981ccee5-a4db-419c-842a-a91241f23f51))
  (model "${KICAD6_3DMODEL_DIR}/Package_DFN_QFN.3dshapes/NXP_LQFN-48-1EP_7x7mm_P0.5mm_EP3.5x3.5mm_16xMask0.45x0.45.wrl"
    (offset (xyz 0 0 0))
    (scale (xyz 1 1 1))
    (rotate (xyz 0 0 0))
  )
)
