(footprint "Texas_WQFN-MR-100_ThermalVias_3x3-DapStencil" (version 20221018) (generator pcbnew)
  (layer "F.Cu")
  (descr "http://www.ti.com/general/docs/lit/getliterature.tsp?baseLiteratureNumber=szza059&fileType=pdf,http://www.ti.com/general/docs/lit/getliterature.tsp?baseLiteratureNumber=mpqf258&fileType=pdf,http://www.ti.com/general/docs/lit/getliterature.tsp?baseLiteratureNumber=LPPD235&fileType=pdf")
  (tags "MultiRow QFN")
  (attr smd)
  (fp_text reference "REF**" (at 0 -5.9) (layer "F.SilkS")
      (effects (font (size 1 1) (thickness 0.15)))
    (tstamp c0855f29-98cd-4d97-84dc-beefb22364bc)
  )
  (fp_text value "Texas_WQFN-MR-100_ThermalVias_3x3-DapStencil" (at 0 6.4) (layer "F.Fab")
      (effects (font (size 1 1) (thickness 0.15)))
    (tstamp 92e8bdbe-9718-473b-aa04-06d910df4978)
  )
  (fp_text user "${REFERENCE}" (at 0 0) (layer "F.Fab")
      (effects (font (size 1 1) (thickness 0.15)))
    (tstamp 18ca7e70-dc37-4176-9981-c4eaffcf1bee)
  )
  (fp_line (start -4.6 -4.6) (end -3.9 -4.6)
    (stroke (width 0.12) (type solid)) (layer "F.SilkS") (tstamp 2818f906-f9e4-46e7-b3ea-f47e18e18e4a))
  (fp_line (start -4.6 -3.9) (end -4.6 -4.6)
    (stroke (width 0.12) (type solid)) (layer "F.SilkS") (tstamp 776526fb-d2a0-4a26-8217-d8862028f7e6))
  (fp_line (start -4.6 3.9) (end -4.6 4.6)
    (stroke (width 0.12) (type solid)) (layer "F.SilkS") (tstamp e5b78d81-0ca5-4ad1-8e90-82024d1336d1))
  (fp_line (start -4.6 4.6) (end -3.9 4.6)
    (stroke (width 0.12) (type solid)) (layer "F.SilkS") (tstamp 2c85f2d0-2aae-4671-90e0-0c337243d1da))
  (fp_line (start 4.6 -4.6) (end 3.9 -4.6)
    (stroke (width 0.12) (type solid)) (layer "F.SilkS") (tstamp 1dac8036-f1b9-4e82-bbe8-53031bc0d7e3))
  (fp_line (start 4.6 -3.9) (end 4.6 -4.6)
    (stroke (width 0.12) (type solid)) (layer "F.SilkS") (tstamp f6c0dc0e-b7e6-4ec5-9f15-85088c2d8531))
  (fp_line (start 4.6 3.9) (end 4.6 4.6)
    (stroke (width 0.12) (type solid)) (layer "F.SilkS") (tstamp 9ed9bbd1-f167-4add-953f-7dd681b962bf))
  (fp_line (start 4.6 4.6) (end 3.9 4.6)
    (stroke (width 0.12) (type solid)) (layer "F.SilkS") (tstamp 413a36e5-d812-49a6-8135-1242b1103e84))
  (fp_circle (center -4.85 -4.85) (end -5 -4.85)
    (stroke (width 0.12) (type solid)) (fill none) (layer "F.SilkS") (tstamp 8d93e38f-960b-4a5d-97a9-7e56052e844f))
  (fp_line (start -5.25 -5.25) (end 5.25 -5.25)
    (stroke (width 0.05) (type solid)) (layer "F.CrtYd") (tstamp 74338a8d-6c55-4bda-91e6-2904bc158911))
  (fp_line (start -5.25 5.25) (end -5.25 -5.25)
    (stroke (width 0.05) (type solid)) (layer "F.CrtYd") (tstamp 0c93b4f3-880f-4dcc-b260-d6bda64c10df))
  (fp_line (start 5.25 -5.25) (end 5.25 5.25)
    (stroke (width 0.05) (type solid)) (layer "F.CrtYd") (tstamp 6ce6d63f-079c-45b6-b475-76ec954d6956))
  (fp_line (start 5.25 5.25) (end -5.25 5.25)
    (stroke (width 0.05) (type solid)) (layer "F.CrtYd") (tstamp fb8a7b90-34bc-48bc-990d-e143b0670a8f))
  (fp_line (start -4.5 -4.5) (end -4.5 4.5)
    (stroke (width 0.15) (type solid)) (layer "F.Fab") (tstamp 6e835d8b-d8be-4d57-bc3f-347d74a0df92))
  (fp_line (start -4.5 -4.5) (end 4.5 -4.5)
    (stroke (width 0.15) (type solid)) (layer "F.Fab") (tstamp 110bcfd3-6f39-4d14-8e47-e48a9f641f0b))
  (fp_line (start -4.5 4.5) (end 4.5 4.5)
    (stroke (width 0.15) (type solid)) (layer "F.Fab") (tstamp cfc5b531-2a1d-448a-bb6e-1c57503e2922))
  (fp_line (start 4.5 -4.5) (end 4.5 4.5)
    (stroke (width 0.15) (type solid)) (layer "F.Fab") (tstamp 78960db8-7da6-48c5-a8f3-e2255c297553))
  (pad "A1" smd rect (at -4.4 -3.6 90) (size 0.25 0.6) (layers "F.Cu" "F.Paste" "F.Mask") (tstamp 6fc347c5-9a79-4ede-abe8-99ce57e6a9da))
  (pad "A2" smd rect (at -4.4 -3 90) (size 0.25 0.6) (layers "F.Cu" "F.Paste" "F.Mask") (tstamp e0ebca9d-b1e5-4a49-9f01-5af0fd173078))
  (pad "A3" smd rect (at -4.4 -2.4 90) (size 0.25 0.6) (layers "F.Cu" "F.Paste" "F.Mask") (tstamp e5fd1aa2-8860-4745-9074-54f97757aa82))
  (pad "A4" smd rect (at -4.4 -1.8 90) (size 0.25 0.6) (layers "F.Cu" "F.Paste" "F.Mask") (tstamp ec962630-da2c-48a7-a263-12fbf968ddbe))
  (pad "A5" smd rect (at -4.4 -1.2 90) (size 0.25 0.6) (layers "F.Cu" "F.Paste" "F.Mask") (tstamp 037f829a-4f6a-41f2-ac44-2272c74c0085))
  (pad "A6" smd rect (at -4.4 -0.6 90) (size 0.25 0.6) (layers "F.Cu" "F.Paste" "F.Mask") (tstamp 7dd97be0-dd4d-4fa2-a8f2-254f91f14c24))
  (pad "A7" smd rect (at -4.4 0 90) (size 0.25 0.6) (layers "F.Cu" "F.Paste" "F.Mask") (tstamp 180699e7-c22f-4cc1-9ca3-8af429dcc527))
  (pad "A8" smd rect (at -4.4 0.6 90) (size 0.25 0.6) (layers "F.Cu" "F.Paste" "F.Mask") (tstamp 4d40d00f-021f-43c5-8f48-2cfcdec39e24))
  (pad "A9" smd rect (at -4.4 1.2 90) (size 0.25 0.6) (layers "F.Cu" "F.Paste" "F.Mask") (tstamp a91d42dd-0bed-4670-a4a8-831faac4c123))
  (pad "A10" smd rect (at -4.4 1.8 90) (size 0.25 0.6) (layers "F.Cu" "F.Paste" "F.Mask") (tstamp 0f0ac5db-0b2e-4829-b111-d902b1d2f470))
  (pad "A11" smd rect (at -4.4 2.4 90) (size 0.25 0.6) (layers "F.Cu" "F.Paste" "F.Mask") (tstamp 9eecdb1b-a17e-442f-a6f8-357131ac10bc))
  (pad "A12" smd rect (at -4.4 3 90) (size 0.25 0.6) (layers "F.Cu" "F.Paste" "F.Mask") (tstamp ca3b4d5d-d6d2-4b20-91fa-e67ec233f526))
  (pad "A13" smd rect (at -4.4 3.6 90) (size 0.25 0.6) (layers "F.Cu" "F.Paste" "F.Mask") (tstamp a093491e-9787-4781-a02a-0a037857dea3))
  (pad "A14" smd rect (at -3.6 4.4) (size 0.25 0.6) (layers "F.Cu" "F.Paste" "F.Mask") (tstamp bdfcd6f3-48e1-45c3-924c-9bb351641d84))
  (pad "A15" smd rect (at -3 4.4) (size 0.25 0.6) (layers "F.Cu" "F.Paste" "F.Mask") (tstamp 3faeb937-c84c-4082-9e91-3b19bb0fa3c0))
  (pad "A16" smd rect (at -2.4 4.4) (size 0.25 0.6) (layers "F.Cu" "F.Paste" "F.Mask") (tstamp 1bdcd5d1-46be-4514-8134-b5b70af8e5db))
  (pad "A17" smd rect (at -1.8 4.4) (size 0.25 0.6) (layers "F.Cu" "F.Paste" "F.Mask") (tstamp a685f87b-4836-43c3-a98a-7bdf23d9b47c))
  (pad "A18" smd rect (at -1.2 4.4) (size 0.25 0.6) (layers "F.Cu" "F.Paste" "F.Mask") (tstamp 43e8b23d-9dc5-4983-9cc6-d3e2f7bd21a6))
  (pad "A19" smd rect (at -0.6 4.4) (size 0.25 0.6) (layers "F.Cu" "F.Paste" "F.Mask") (tstamp d0d9f41a-0e6c-4cc3-9f11-3f7d8d58af06))
  (pad "A20" smd rect (at 0 4.4) (size 0.25 0.6) (layers "F.Cu" "F.Paste" "F.Mask") (tstamp a3a21055-3a9c-4f22-9979-18d7c74551fb))
  (pad "A21" smd rect (at 0.6 4.4) (size 0.25 0.6) (layers "F.Cu" "F.Paste" "F.Mask") (tstamp b4ead2fe-ea15-4c35-a75e-3a2c42b5926d))
  (pad "A22" smd rect (at 1.2 4.4) (size 0.25 0.6) (layers "F.Cu" "F.Paste" "F.Mask") (tstamp 415c656d-e945-49b8-966b-282aca6b5072))
  (pad "A23" smd rect (at 1.8 4.4) (size 0.25 0.6) (layers "F.Cu" "F.Paste" "F.Mask") (tstamp 45bb6197-cbc1-4b64-9a86-9b097d6b700d))
  (pad "A24" smd rect (at 2.4 4.4) (size 0.25 0.6) (layers "F.Cu" "F.Paste" "F.Mask") (tstamp 7b8bf4c7-79d8-4799-b0e1-916fc21c7698))
  (pad "A25" smd rect (at 3 4.4) (size 0.25 0.6) (layers "F.Cu" "F.Paste" "F.Mask") (tstamp 2782fb99-0245-4ed4-a4bb-0e6f9738c280))
  (pad "A26" smd rect (at 3.6 4.4) (size 0.25 0.6) (layers "F.Cu" "F.Paste" "F.Mask") (tstamp 47397cd4-07a0-42db-8745-d4b4ae4672b1))
  (pad "A27" smd rect (at 4.4 3.6 90) (size 0.25 0.6) (layers "F.Cu" "F.Paste" "F.Mask") (tstamp 35c78770-c3e7-495d-8937-bb81fe61f724))
  (pad "A28" smd rect (at 4.4 3 90) (size 0.25 0.6) (layers "F.Cu" "F.Paste" "F.Mask") (tstamp 9e715918-f25c-4b47-8b24-5a9943f7faea))
  (pad "A29" smd rect (at 4.4 2.4 90) (size 0.25 0.6) (layers "F.Cu" "F.Paste" "F.Mask") (tstamp 4480d64a-632e-4cd5-93f5-7d1c939036ae))
  (pad "A30" smd rect (at 4.4 1.8 90) (size 0.25 0.6) (layers "F.Cu" "F.Paste" "F.Mask") (tstamp 4c50febc-6e9d-406d-9a4d-6d633f13533a))
  (pad "A31" smd rect (at 4.4 1.2 90) (size 0.25 0.6) (layers "F.Cu" "F.Paste" "F.Mask") (tstamp 85efa8e6-aeb4-4a71-aa5c-d542d8784869))
  (pad "A32" smd rect (at 4.4 0.6 90) (size 0.25 0.6) (layers "F.Cu" "F.Paste" "F.Mask") (tstamp b6fc79d6-c45f-46ce-bca5-7d3dd045a001))
  (pad "A33" smd rect (at 4.4 0 90) (size 0.25 0.6) (layers "F.Cu" "F.Paste" "F.Mask") (tstamp e96956d2-0494-4b5f-86c0-df3b71e4b21c))
  (pad "A34" smd rect (at 4.4 -0.6 90) (size 0.25 0.6) (layers "F.Cu" "F.Paste" "F.Mask") (tstamp 07e29bdb-8ca8-48d5-b1c9-0c269c92b5da))
  (pad "A35" smd rect (at 4.4 -1.2 90) (size 0.25 0.6) (layers "F.Cu" "F.Paste" "F.Mask") (tstamp 06b592a0-ea7c-4ba0-84f0-39fe3661c563))
  (pad "A36" smd rect (at 4.4 -1.8 90) (size 0.25 0.6) (layers "F.Cu" "F.Paste" "F.Mask") (tstamp b586b75b-8755-4a0a-ba3f-73969af331c8))
  (pad "A37" smd rect (at 4.4 -2.4 90) (size 0.25 0.6) (layers "F.Cu" "F.Paste" "F.Mask") (tstamp f8520bc1-1fe2-4b9d-9d16-d688a5d442d9))
  (pad "A38" smd rect (at 4.4 -3 90) (size 0.25 0.6) (layers "F.Cu" "F.Paste" "F.Mask") (tstamp a8acc435-3264-4b22-ba32-41ba858dd642))
  (pad "A39" smd rect (at 4.4 -3.6 90) (size 0.25 0.6) (layers "F.Cu" "F.Paste" "F.Mask") (tstamp 2e020316-a2b8-4ca6-80e7-8a2787aca73e))
  (pad "A40" smd rect (at 3.6 -4.4) (size 0.25 0.6) (layers "F.Cu" "F.Paste" "F.Mask") (tstamp e2245fee-d110-4acd-aa8f-b210b61d8a11))
  (pad "A41" smd rect (at 3 -4.4) (size 0.25 0.6) (layers "F.Cu" "F.Paste" "F.Mask") (tstamp bb631d13-e48f-418c-9a95-0e80b6d051ec))
  (pad "A42" smd rect (at 2.4 -4.4) (size 0.25 0.6) (layers "F.Cu" "F.Paste" "F.Mask") (tstamp dc61fca1-f788-43ac-a4b9-d699de6cbf0b))
  (pad "A43" smd rect (at 1.8 -4.4) (size 0.25 0.6) (layers "F.Cu" "F.Paste" "F.Mask") (tstamp b3c5ab0c-1c8c-41d4-8a40-6dfab8492ad8))
  (pad "A44" smd rect (at 1.2 -4.4) (size 0.25 0.6) (layers "F.Cu" "F.Paste" "F.Mask") (tstamp 83307e80-6be9-43ce-af5f-e6110a0930e8))
  (pad "A45" smd rect (at 0.6 -4.4) (size 0.25 0.6) (layers "F.Cu" "F.Paste" "F.Mask") (tstamp e222ad3e-e7c0-494f-8bd9-a49c977986f8))
  (pad "A46" smd rect (at 0 -4.4) (size 0.25 0.6) (layers "F.Cu" "F.Paste" "F.Mask") (tstamp 7ab37c9c-6e81-4406-9db5-b28590073892))
  (pad "A47" smd rect (at -0.6 -4.4) (size 0.25 0.6) (layers "F.Cu" "F.Paste" "F.Mask") (tstamp 51a004a6-b1f0-447a-9a3c-ccc7a868bf0d))
  (pad "A48" smd rect (at -1.2 -4.4) (size 0.25 0.6) (layers "F.Cu" "F.Paste" "F.Mask") (tstamp 82ffb11a-9c50-4897-9a1c-da89af52608a))
  (pad "A49" smd rect (at -1.8 -4.4) (size 0.25 0.6) (layers "F.Cu" "F.Paste" "F.Mask") (tstamp 72e8489b-696e-4225-a119-c66121b773b7))
  (pad "A50" smd rect (at -2.4 -4.4) (size 0.25 0.6) (layers "F.Cu" "F.Paste" "F.Mask") (tstamp 43f1e4c7-f3a4-4399-a194-8fb89d50cc4e))
  (pad "A51" smd rect (at -3 -4.4) (size 0.25 0.6) (layers "F.Cu" "F.Paste" "F.Mask") (tstamp c2341f8c-ec7e-4750-85d5-1c7db147b8f5))
  (pad "A52" smd rect (at -3.6 -4.4) (size 0.25 0.6) (layers "F.Cu" "F.Paste" "F.Mask") (tstamp e0548fdb-4892-4110-9dde-28fcad1ddfad))
  (pad "A53" thru_hole circle (at -2.45 -0.92) (size 0.5 0.5) (drill 0.2) (layers "*.Cu") (tstamp d973a84e-7f96-49c7-8a4b-a4507f9b7d7a))
  (pad "A53" thru_hole circle (at -2.45 0.92) (size 0.5 0.5) (drill 0.2) (layers "*.Cu") (tstamp ae2afb37-cfb7-4917-befb-1e78eb9f93a2))
  (pad "A53" smd rect (at -1.835 -1.835) (size 1.83 1.83) (layers "F.Cu" "F.Paste" "F.Mask")
    (solder_paste_margin_ratio -0.11) (tstamp dba47c2f-bb21-4f7b-866e-5afc3051d075))
  (pad "A53" smd rect (at -1.835 0) (size 1.83 1.84) (layers "F.Cu" "F.Paste" "F.Mask")
    (solder_paste_margin_ratio -0.11) (tstamp 329ba92b-23ee-4653-88e7-25586adb58df))
  (pad "A53" smd rect (at -1.835 1.835) (size 1.83 1.83) (layers "F.Cu" "F.Paste" "F.Mask")
    (solder_paste_margin_ratio -0.11) (tstamp edf7a9a5-55ac-4d1e-94c7-c0b70e650c59))
  (pad "A53" thru_hole circle (at -0.92 -2.45) (size 0.5 0.5) (drill 0.2) (layers "*.Cu") (tstamp 3c341cfa-db95-4134-bc20-9b8228063c16))
  (pad "A53" thru_hole circle (at -0.92 -0.92) (size 0.5 0.5) (drill 0.2) (layers "*.Cu") (tstamp 66f2b1b5-f32c-4bc4-b02f-91b6df0c4b9b))
  (pad "A53" thru_hole circle (at -0.92 0.92) (size 0.5 0.5) (drill 0.2) (layers "*.Cu") (tstamp 0836b19b-50f7-458a-99ca-4f9a579bcd45))
  (pad "A53" thru_hole circle (at -0.92 2.45) (size 0.5 0.5) (drill 0.2) (layers "*.Cu") (tstamp 1522aa7c-d375-44a0-b91d-cd64267a16a7))
  (pad "A53" smd rect (at 0 -1.835) (size 1.84 1.83) (layers "F.Cu" "F.Paste" "F.Mask")
    (solder_paste_margin_ratio -0.11) (tstamp 0ea44c59-38cd-4084-bb09-935485341b35))
  (pad "A53" smd rect (at 0 0) (size 1.84 1.84) (layers "F.Cu" "F.Paste" "F.Mask")
    (solder_paste_margin_ratio -0.11) (tstamp b0ebfb1e-bc52-40c1-bedb-55dd45a30041))
  (pad "A53" smd rect (at 0 0) (size 5.5 5.5) (layers "B.Cu") (tstamp 6b10a922-488e-42a4-9aa2-4dfb19afb1ab))
  (pad "A53" smd rect (at 0 1.835) (size 1.84 1.83) (layers "F.Cu" "F.Paste" "F.Mask")
    (solder_paste_margin_ratio -0.11) (tstamp a3b03308-2caf-46fe-9e97-839099c7ea5f))
  (pad "A53" thru_hole circle (at 0.92 -2.45) (size 0.5 0.5) (drill 0.2) (layers "*.Cu") (tstamp c8cdcf80-0075-4270-8a05-f3982801adb6))
  (pad "A53" thru_hole circle (at 0.92 -0.92) (size 0.5 0.5) (drill 0.2) (layers "*.Cu") (tstamp 2b722dc5-7b59-49ec-91fb-1ccaa8a10591))
  (pad "A53" thru_hole circle (at 0.92 0.92) (size 0.5 0.5) (drill 0.2) (layers "*.Cu") (tstamp 6b885368-7f84-4bc8-98ba-d673c5a7e7a8))
  (pad "A53" thru_hole circle (at 0.92 2.45) (size 0.5 0.5) (drill 0.2) (layers "*.Cu") (tstamp 6e1b171b-5658-4ade-9d1d-723dec11d31d))
  (pad "A53" smd rect (at 1.835 -1.835) (size 1.83 1.83) (layers "F.Cu" "F.Paste" "F.Mask")
    (solder_paste_margin_ratio -0.11) (tstamp d21876ac-1ea6-4616-9923-86330ad55db4))
  (pad "A53" smd rect (at 1.835 0) (size 1.83 1.84) (layers "F.Cu" "F.Paste" "F.Mask")
    (solder_paste_margin_ratio -0.11) (tstamp 7a48ca4d-9ca9-4dc7-90c5-47c27208bdcf))
  (pad "A53" smd rect (at 1.835 1.835) (size 1.83 1.83) (layers "F.Cu" "F.Paste" "F.Mask")
    (solder_paste_margin_ratio -0.11) (tstamp f0db084d-9890-4f1a-ad09-ee0a14681264))
  (pad "A53" thru_hole circle (at 2.45 -0.92) (size 0.5 0.5) (drill 0.2) (layers "*.Cu") (tstamp f194c258-9474-4429-bfa5-4a027964a58c))
  (pad "A53" thru_hole circle (at 2.45 0.92) (size 0.5 0.5) (drill 0.2) (layers "*.Cu") (tstamp c6979d28-00a9-453f-8528-52aa946fc7b2))
  (pad "B1" smd rect (at -3.65 -3.025 90) (size 0.25 0.4) (layers "F.Cu" "F.Paste" "F.Mask") (tstamp af751f58-7976-479d-a900-08bf2e1a7e0e))
  (pad "B2" smd rect (at -3.65 -2.475 90) (size 0.25 0.4) (layers "F.Cu" "F.Paste" "F.Mask") (tstamp 5be861f7-91dc-4fd0-aec4-02eea131a11f))
  (pad "B3" smd rect (at -3.65 -1.925 90) (size 0.25 0.4) (layers "F.Cu" "F.Paste" "F.Mask") (tstamp 765e2af9-8272-4619-bd1c-9a6c2ade074a))
  (pad "B4" smd rect (at -3.65 -1.375 90) (size 0.25 0.4) (layers "F.Cu" "F.Paste" "F.Mask") (tstamp a48db9d8-5936-476c-bd44-46bb5e8c443f))
  (pad "B5" smd rect (at -3.65 -0.825 90) (size 0.25 0.4) (layers "F.Cu" "F.Paste" "F.Mask") (tstamp d736cda5-6b38-475b-a81c-652b4260e3c7))
  (pad "B6" smd rect (at -3.65 -0.275 90) (size 0.25 0.4) (layers "F.Cu" "F.Paste" "F.Mask") (tstamp 264217b9-db94-41dd-8036-b787438876a3))
  (pad "B7" smd rect (at -3.65 0.275 90) (size 0.25 0.4) (layers "F.Cu" "F.Paste" "F.Mask") (tstamp 19167b95-d8c1-4a1b-83ae-3ffd19b4f661))
  (pad "B8" smd rect (at -3.65 0.825 90) (size 0.25 0.4) (layers "F.Cu" "F.Paste" "F.Mask") (tstamp 49fabcc8-4d6d-439b-89d7-42ba701ea8c7))
  (pad "B9" smd rect (at -3.65 1.375 90) (size 0.25 0.4) (layers "F.Cu" "F.Paste" "F.Mask") (tstamp 61911b94-b97a-46eb-bf23-a8e253e97c6a))
  (pad "B10" smd rect (at -3.65 1.925 90) (size 0.25 0.4) (layers "F.Cu" "F.Paste" "F.Mask") (tstamp c674083f-c781-4030-b61c-c747a4b5fe96))
  (pad "B11" smd rect (at -3.65 2.475 90) (size 0.25 0.4) (layers "F.Cu" "F.Paste" "F.Mask") (tstamp 78f8a755-0efa-442a-abd5-c1132121210b))
  (pad "B12" smd rect (at -3.65 3.025 90) (size 0.25 0.4) (layers "F.Cu" "F.Paste" "F.Mask") (tstamp b2715105-3c8b-4e77-858f-7b0e7fdb0924))
  (pad "B13" smd rect (at -3.025 3.65) (size 0.25 0.4) (layers "F.Cu" "F.Paste" "F.Mask") (tstamp 7156a38b-b682-46b6-a958-4dc482f631e0))
  (pad "B14" smd rect (at -2.475 3.65) (size 0.25 0.4) (layers "F.Cu" "F.Paste" "F.Mask") (tstamp 67828423-b169-4fa8-bf0b-56dc22a56acb))
  (pad "B15" smd rect (at -1.925 3.65) (size 0.25 0.4) (layers "F.Cu" "F.Paste" "F.Mask") (tstamp eaf7c2fd-d865-4d46-afa3-bf33b53a45a9))
  (pad "B16" smd rect (at -1.375 3.65) (size 0.25 0.4) (layers "F.Cu" "F.Paste" "F.Mask") (tstamp cb0c9977-6b85-484a-b367-e2c3851bcf00))
  (pad "B17" smd rect (at -0.825 3.65) (size 0.25 0.4) (layers "F.Cu" "F.Paste" "F.Mask") (tstamp 992ee77b-6b27-4bd3-a6fc-77c7d0583725))
  (pad "B18" smd rect (at -0.275 3.65) (size 0.25 0.4) (layers "F.Cu" "F.Paste" "F.Mask") (tstamp 1538a7de-4bdc-4691-8bf8-ae69051cf240))
  (pad "B19" smd rect (at 0.275 3.65) (size 0.25 0.4) (layers "F.Cu" "F.Paste" "F.Mask") (tstamp 49e136a2-5978-456a-ae3d-7008ebaf3cf7))
  (pad "B20" smd rect (at 0.825 3.65) (size 0.25 0.4) (layers "F.Cu" "F.Paste" "F.Mask") (tstamp 1ec9262d-91ca-4b0a-a9ef-612599e67803))
  (pad "B21" smd rect (at 1.375 3.65) (size 0.25 0.4) (layers "F.Cu" "F.Paste" "F.Mask") (tstamp 3a17de96-75ec-4385-9072-3429531d6afb))
  (pad "B22" smd rect (at 1.925 3.65) (size 0.25 0.4) (layers "F.Cu" "F.Paste" "F.Mask") (tstamp 5b0cea71-5e3a-4c5f-8a6e-d00822f5fc95))
  (pad "B23" smd rect (at 2.475 3.65) (size 0.25 0.4) (layers "F.Cu" "F.Paste" "F.Mask") (tstamp ac1ea342-f07d-4bee-a2c7-a7855b157ce9))
  (pad "B24" smd rect (at 3.025 3.65) (size 0.25 0.4) (layers "F.Cu" "F.Paste" "F.Mask") (tstamp 71724c34-1f30-421a-9b74-d9d282e54540))
  (pad "B25" smd rect (at 3.65 3.025 90) (size 0.25 0.4) (layers "F.Cu" "F.Paste" "F.Mask") (tstamp c9b518d8-10c6-4a47-aa56-a11f3c26659a))
  (pad "B26" smd rect (at 3.65 2.475 90) (size 0.25 0.4) (layers "F.Cu" "F.Paste" "F.Mask") (tstamp cc70ac44-654f-47f2-913e-23770a12ae9a))
  (pad "B27" smd rect (at 3.65 1.925 90) (size 0.25 0.4) (layers "F.Cu" "F.Paste" "F.Mask") (tstamp 9be3bd43-7610-41d9-b236-ea39bd0abb17))
  (pad "B28" smd rect (at 3.65 1.375 90) (size 0.25 0.4) (layers "F.Cu" "F.Paste" "F.Mask") (tstamp ff64cb9f-8d21-48d7-917b-c50b7beb6484))
  (pad "B29" smd rect (at 3.65 0.825 90) (size 0.25 0.4) (layers "F.Cu" "F.Paste" "F.Mask") (tstamp 6bdf3611-ded6-4de4-9bbe-4f29bb558060))
  (pad "B30" smd rect (at 3.65 0.275 90) (size 0.25 0.4) (layers "F.Cu" "F.Paste" "F.Mask") (tstamp cb75ae1a-6cf3-4356-b648-8b3a47950406))
  (pad "B31" smd rect (at 3.65 -0.275 90) (size 0.25 0.4) (layers "F.Cu" "F.Paste" "F.Mask") (tstamp 98bd2583-d998-4489-8c65-ffc4730d470a))
  (pad "B32" smd rect (at 3.65 -0.825 90) (size 0.25 0.4) (layers "F.Cu" "F.Paste" "F.Mask") (tstamp 2b4da5bf-cb1a-44c0-a488-599bc3932a74))
  (pad "B33" smd rect (at 3.65 -1.375 90) (size 0.25 0.4) (layers "F.Cu" "F.Paste" "F.Mask") (tstamp a37e19de-2ae6-4a81-8c6c-f08fff547093))
  (pad "B34" smd rect (at 3.65 -1.925 90) (size 0.25 0.4) (layers "F.Cu" "F.Paste" "F.Mask") (tstamp a67edbe8-6c49-41e2-b1c6-23c8414596ae))
  (pad "B35" smd rect (at 3.65 -2.475 90) (size 0.25 0.4) (layers "F.Cu" "F.Paste" "F.Mask") (tstamp 99cb3b0a-4c56-4344-a980-ffab0d986b72))
  (pad "B36" smd rect (at 3.65 -3.025 90) (size 0.25 0.4) (layers "F.Cu" "F.Paste" "F.Mask") (tstamp cc0e8cf6-055d-4c3a-98d8-f8c947bb186a))
  (pad "B37" smd rect (at 3.025 -3.65) (size 0.25 0.4) (layers "F.Cu" "F.Paste" "F.Mask") (tstamp b90a2750-c59e-4b66-85f3-93be22bacd1a))
  (pad "B38" smd rect (at 2.475 -3.65) (size 0.25 0.4) (layers "F.Cu" "F.Paste" "F.Mask") (tstamp 427f4c72-d52a-4632-b07d-40026dd262b9))
  (pad "B39" smd rect (at 1.925 -3.65) (size 0.25 0.4) (layers "F.Cu" "F.Paste" "F.Mask") (tstamp 0a167548-714e-4699-9ffc-613159b8e38b))
  (pad "B40" smd rect (at 1.375 -3.65) (size 0.25 0.4) (layers "F.Cu" "F.Paste" "F.Mask") (tstamp 5b627588-23eb-4d82-b688-8a135beb4bd4))
  (pad "B41" smd rect (at 0.825 -3.65) (size 0.25 0.4) (layers "F.Cu" "F.Paste" "F.Mask") (tstamp ab1b8428-c713-453f-b322-337180a8f684))
  (pad "B42" smd rect (at 0.275 -3.65) (size 0.25 0.4) (layers "F.Cu" "F.Paste" "F.Mask") (tstamp 704f8004-5fe5-4989-bced-d98a06ab35bd))
  (pad "B43" smd rect (at -0.275 -3.65) (size 0.25 0.4) (layers "F.Cu" "F.Paste" "F.Mask") (tstamp 2a364d2d-32d9-4a55-be38-46bd663ce73d))
  (pad "B44" smd rect (at -0.825 -3.65) (size 0.25 0.4) (layers "F.Cu" "F.Paste" "F.Mask") (tstamp fcb51474-d1e4-484b-92fa-23fbc3af85e4))
  (pad "B45" smd rect (at -1.375 -3.65) (size 0.25 0.4) (layers "F.Cu" "F.Paste" "F.Mask") (tstamp 5a35fe32-b1f4-49c4-96ae-eb4b89e3a358))
  (pad "B46" smd rect (at -1.925 -3.65) (size 0.25 0.4) (layers "F.Cu" "F.Paste" "F.Mask") (tstamp 968c24ea-557d-4cc3-9a94-adcfa3ffade5))
  (pad "B47" smd rect (at -2.475 -3.65) (size 0.25 0.4) (layers "F.Cu" "F.Paste" "F.Mask") (tstamp 0cd55656-03ec-44cd-bdda-09d2c6f78202))
  (pad "B48" smd rect (at -3.025 -3.65) (size 0.25 0.4) (layers "F.Cu" "F.Paste" "F.Mask") (tstamp 46afebdf-fff9-44e4-ba49-8840d2074f3c))
  (pad "C1" smd rect (at -4.25 -4.25) (size 0.3 0.3) (layers "F.Cu" "F.Paste" "F.Mask") (tstamp 29f17bcf-2f44-4262-a62e-b766c7f4d7fb))
  (pad "C2" smd rect (at -4.25 4.25) (size 0.3 0.3) (layers "F.Cu" "F.Paste" "F.Mask") (tstamp 9069e4dc-7333-4991-9e2f-b73524425b08))
  (pad "C3" smd rect (at 4.25 4.25) (size 0.3 0.3) (layers "F.Cu" "F.Paste" "F.Mask") (tstamp 274cf419-0142-4560-947f-581dabb6aeeb))
  (pad "C4" smd rect (at 4.25 -4.25) (size 0.3 0.3) (layers "F.Cu" "F.Paste" "F.Mask") (tstamp b9347caa-5c1f-4462-90e3-64c63418fe8f))
  (model "${KICAD6_3DMODEL_DIR}/Package_DFN_QFN.3dshapes/Texas_WQFN-MR-100.wrl"
    (offset (xyz 0 0 0))
    (scale (xyz 1 1 1))
    (rotate (xyz 0 0 0))
  )
)
